"name","given","fullpath","mtime","md5"
"cases","/data/covid19/PHE/PHE_2021-01-29/Anonymised Combined Line List 20210129.csv","/data/covid19/PHE/PHE_2021-01-29/Anonymised Combined Line List 20210129.csv",2021-01-29 18:22:01,"9d2048ac202f92017c0f99bcffd5a0aa"
"flows","/app/Data/Unrestricted/processed/mergedflows.rds","/app/Data/Unrestricted/processed/mergedflows.rds",2020-06-15 14:28:56,"2f34b018ac0995f8e9461f062a068004"
"traffic","/data/covid19/Dft/2021-01-22/210122_OFF_SEN_COVID19_road_traffic_national_table.xlsx","/data/covid19/Dft/2021-01-22/210122_OFF_SEN_COVID19_road_traffic_national_table.xlsx",2021-01-25 17:06:46,"974f1a1ea95f710664f08f3c6b2a436f"
"areas","/app/Data/Unrestricted/original/geodata/UK2019mod_pop.gpkg","/app/Data/Unrestricted/original/geodata/UK2019mod_pop.gpkg",2020-06-22 08:51:34,"cf99fa0284c96852e73f588f6bb89110"
