"name","given","fullpath","mtime","md5"
"cases","/data/covid19/PHE/PHE_2020-10-28/Anonymised Combined Line List 20201028.csv","/data/covid19/PHE/PHE_2020-10-28/Anonymised Combined Line List 20201028.csv",2020-10-28 15:16:15,"6672d2a6b37051ef3d1b21700642e585"
"flows","/app/Data/Unrestricted/processed/mergedflows.rds","/app/Data/Unrestricted/processed/mergedflows.rds",2020-06-15 14:28:56,"2f34b018ac0995f8e9461f062a068004"
"traffic","/data/covid19/Dft/2020-10-23/201023_OFF_SEN_COVID19_road_traffic_national_table.xlsx","/data/covid19/Dft/2020-10-23/201023_OFF_SEN_COVID19_road_traffic_national_table.xlsx",2020-10-26 18:06:06,"f88dbe438c3044d0d9d75e333a9e0170"
"areas","/app/Data/Unrestricted/original/geodata/UK2019mod_pop.gpkg","/app/Data/Unrestricted/original/geodata/UK2019mod_pop.gpkg",2020-06-22 08:51:34,"cf99fa0284c96852e73f588f6bb89110"
