lad19cd,ex_prob
E06000001,0.9819
E06000002,0.9979
E06000003,0.9998
E06000004,0.9949
E06000005,0.8013
E06000006,0.3069
E06000007,0.8315
E06000008,0.2961
E06000009,0.941
E06000010,0.9386
E06000011,0.7933
E06000012,0.8302
E06000013,0.6868
E06000014,0.3953
E06000015,0.513
E06000016,0.6133
E06000017,0.1591
E06000018,0.8279
E06000019,0.6853
E06000020,0.6291
E06000021,0.8465
E06000022,0.9883
E06000023,0.7779
E06000024,0.9756
E06000025,0.8688
E06000026,0.8728
E06000027,0.9864
E06000030,0.3197
E06000031,0.6357
E06000032,0.5546
E06000033,0.6721
E06000034,0.7057
E06000035,0.5026
E06000036,0.5366
E06000037,0.3071
E06000038,0.3467
E06000039,0.5204
E06000040,0.7127
E06000041,0.2472
E06000042,0.4127
E06000043,0.6863
E06000044,0.7717
E06000045,0.7112
E06000046,0.1664
E06000047,0.8377
E06000049,0.4743
E06000050,0.506
E06000051,0.2115
"E06000052,E06000053",0.1052
E06000054,0.3576
E06000055,0.367
E06000056,0.4622
E06000057,0.8745
E06000058,0.8599
E06000059,0.3102
E07000004,0.4991
E07000005,0.5382
E07000006,0.9331
E07000007,0.7505
E07000008,0.9813
E07000009,0.8644
E07000010,0.4344
E07000011,0.343
E07000012,0.5275
E07000026,0.775
E07000027,0.9999
E07000028,0.6753
E07000029,1
E07000030,0.2099
E07000031,0.4048
E07000032,0.3424
E07000033,0.8174
E07000034,0.5708
E07000035,0.2575
E07000036,0.7423
E07000037,0.1261
E07000038,0.6827
E07000039,0.2421
E07000040,0.5246
E07000041,0.9017
E07000042,0.2704
E07000043,0.9988
E07000044,0.1572
E07000045,0.8143
E07000046,0.7907
E07000047,0.067
E07000061,0.1973
E07000062,0.5157
E07000063,0.2115
E07000064,0.0451
E07000065,0.3415
E07000066,0.9425
E07000067,0.4064
E07000068,0.8802
E07000069,0.7045
E07000070,0.8945
E07000071,0.757
E07000072,0.8434
E07000073,0.6481
E07000074,0.4639
E07000075,0.9148
E07000076,0.8678
E07000077,0.756
E07000078,0.361
E07000079,0.3815
E07000080,0.0413
E07000081,0.8986
E07000082,0.1829
E07000083,0.3086
E07000084,0.9966
E07000085,0.3027
E07000086,0.7063
E07000087,0.1973
E07000088,0.9035
E07000089,0.9661
E07000090,0.3474
E07000091,0.1312
E07000092,0.1919
E07000093,0.6538
E07000094,0.5827
E07000095,0.9098
E07000096,0.6547
E07000098,0.8349
E07000099,0.2319
E07000102,0.7772
E07000103,0.6392
E07000105,0.1868
E07000106,0.006
E07000107,0.8937
E07000108,0.0619
E07000109,0.4762
E07000110,0.828
E07000111,0.6248
E07000112,0.202
E07000113,0.1699
E07000114,0.0079
E07000115,0.2519
E07000116,0.2716
E07000117,0.4786
E07000118,0.8343
E07000119,0.9927
E07000120,0.5693
E07000121,0.9887
E07000122,0.9
E07000123,0.5581
E07000124,0.534
E07000125,0.8551
E07000126,0.7919
E07000127,0.7869
E07000128,0.4813
E07000129,0.0681
E07000130,0.5875
E07000131,0.2628
E07000132,0.0877
E07000133,0.1883
E07000134,0.4394
E07000135,0.449
E07000136,0.1641
E07000137,0.025
E07000138,0.1677
E07000139,0.1681
E07000140,0.5669
E07000141,0.6184
E07000142,0.0432
E07000143,0.0026
E07000144,0.2142
E07000145,0.9225
E07000146,0.3398
E07000147,0.2383
E07000148,0.1756
E07000149,0.4893
E07000150,0.9459
E07000151,0.1957
E07000152,0.4098
E07000153,0.6285
E07000154,0.565
E07000155,0.8024
E07000156,0.5083
E07000163,0.7039
E07000164,0.8634
E07000165,0.27
E07000166,0.9983
E07000167,0.0863
E07000168,0.9737
E07000169,0.0821
E07000170,0.4061
E07000171,0.0961
E07000172,0.6367
E07000173,0.709
E07000174,0.9832
E07000175,0.8527
E07000176,0.7513
E07000177,0.4894
E07000178,0.5841
E07000179,0.2142
E07000180,0.006
E07000181,0.5247
E07000187,0.1378
E07000188,0.4284
E07000189,0.6413
E07000192,0.6835
E07000193,0.6896
E07000194,0.5603
E07000195,0.2972
E07000196,0.1152
E07000197,0.1539
E07000198,0.403
E07000199,0.7467
E07000200,0.5086
E07000202,0.1911
E07000203,0.0324
E07000207,0.9277
E07000208,0.8481
E07000209,0.849
E07000210,0.6396
E07000211,0.4153
E07000212,0.1158
E07000213,0.6295
E07000214,0.9713
E07000215,0.5334
E07000216,0.3366
E07000217,0.6716
E07000218,0.2221
E07000219,0.7966
E07000220,0.0646
E07000221,0.7225
E07000222,0.2885
E07000223,0.5392
E07000224,0.8389
E07000225,0.4044
E07000226,0.3715
E07000227,0.0748
E07000228,0.4103
E07000229,0.6434
E07000234,0.1836
E07000235,0.4954
E07000236,0.114
E07000237,0.94
E07000238,0.5732
E07000239,0.294
E07000240,0.7045
E07000241,0.01
E07000242,0.517
E07000243,0.1113
E07000244,0.0755
E07000245,0.4664
E07000246,0.0256
E08000001,0.8084
E08000002,0.1755
E08000003,0.1373
E08000004,0.8345
E08000005,0.821
E08000006,0.4948
E08000007,0.2287
E08000008,0.2905
E08000009,0.1123
E08000010,0.8274
E08000011,0.3784
E08000012,0.3974
E08000013,0.3839
E08000014,0.2768
E08000015,0.7883
E08000016,0.9357
E08000017,0.9146
E08000018,0.7892
E08000019,0.8846
E08000021,0.6938
E08000022,0.9534
E08000023,0.785
E08000024,0.8825
E08000025,0.3785
E08000026,0.4489
E08000027,0.5635
E08000028,0.407
E08000029,0.6307
E08000030,0.2551
E08000031,0.6254
E08000032,0.4646
E08000033,0.3414
E08000034,0.4421
E08000035,0.202
E08000036,0.1932
E08000037,0.7532
"E09000001,E09000033",0.0372
E09000002,0.8752
E09000003,0.7533
E09000004,0.9305
E09000005,0.9348
E09000006,0.7952
E09000007,0.3735
E09000008,0.7912
E09000009,0.7951
E09000010,0.7451
E09000011,0.8031
E09000012,0.9102
E09000013,0.9663
E09000014,0.7328
E09000015,0.856
E09000016,0.9005
E09000017,0.385
E09000018,0.6881
E09000019,0.7645
E09000020,0.9209
E09000021,0.6066
E09000022,0.9612
E09000023,0.9092
E09000024,0.7907
E09000025,0.6411
E09000026,0.6
E09000027,0.9892
E09000028,0.5929
E09000029,0.7984
E09000030,0.3872
E09000031,0.835
E09000032,0.9659
