lad19cd,ex_prob
E06000001,0.7763
E06000002,0.3788
E06000003,0.6962
E06000004,0.4333
E06000005,0.987
E06000006,0.7228
E06000007,0.7869
E06000008,0.9759
E06000009,0.9965
E06000010,0.2151
E06000011,0.5411
E06000012,0.9395
E06000013,0.5278
E06000014,0.5983
E06000015,0.5761
E06000016,0.8047
E06000017,0.5337
E06000018,0.9611
E06000019,0.2574
E06000020,0.8205
E06000021,0.2472
E06000022,0.7328
E06000023,0.5839
E06000024,0.184
E06000025,0.4613
E06000026,0.1014
E06000027,0
E06000030,0.4821
E06000031,0.2791
E06000032,0.7073
E06000033,0.2826
E06000034,0.2652
E06000035,0.0579
E06000036,0.4925
E06000037,0.1878
E06000038,0.958
E06000039,0.848
E06000040,0.3151
E06000041,0.0551
E06000042,0.48
E06000043,0.7877
E06000044,0.5885
E06000045,0.999
E06000046,0
E06000047,0.3328
E06000049,0.7816
E06000050,0.2239
E06000051,0.5837
"E06000052,E06000053",0.9463
E06000054,0.2277
E06000055,0.6936
E06000056,0.1691
E06000057,0.5553
E06000058,0.8498
E06000059,0.5714
E07000004,0.6094
E07000005,0.2823
E07000006,0.2824
E07000007,0.5458
E07000008,0.9999
E07000009,0
E07000010,0.768
E07000011,0.3576
E07000012,0.261
E07000026,0.6769
E07000027,1
E07000028,0.1411
E07000029,0.9581
E07000030,0.976
E07000031,0.9272
E07000032,0
E07000033,0.2976
E07000034,0.6566
E07000035,0.8156
E07000036,0.1535
E07000037,0.5625
E07000038,0
E07000039,0.2302
E07000040,0.1858
E07000041,0.9999
E07000042,0.695
E07000043,0.5214
E07000044,0.6508
E07000045,0.5155
E07000046,0
E07000047,0
E07000061,0.8883
E07000062,0
E07000063,0.9276
E07000064,0.2923
E07000065,0.1655
E07000066,0.0698
E07000067,0.799
E07000068,0.8194
E07000069,0
E07000070,0.1316
E07000071,0.9493
E07000072,0.4341
E07000073,0
E07000074,0
E07000075,0.3788
E07000076,0.3961
E07000077,0.8013
E07000078,0.9242
E07000079,0.4598
E07000080,0.1717
E07000081,0.9601
E07000082,0.3831
E07000083,0.7127
E07000084,0.5582
E07000085,0.1876
E07000086,0.2996
E07000087,0.9733
E07000088,0.3787
E07000089,0
E07000090,0.4758
E07000091,0.084
E07000092,0.2147
E07000093,0.8398
E07000094,0.2543
E07000095,0.6578
E07000096,0.5178
E07000098,0.6611
E07000099,0.5775
E07000102,0.4672
E07000103,0.9529
E07000105,0.1298
E07000106,0.4858
E07000107,0.7285
E07000108,0.2797
E07000109,0.9734
E07000110,0.5529
E07000111,0.2586
E07000112,0.2831
E07000113,0.1314
E07000114,0.2388
E07000115,0.4443
E07000116,0.7692
E07000117,0.992
E07000118,0.9976
E07000119,0.6046
E07000120,0.4999
E07000121,0.9491
E07000122,0.9537
E07000123,0.9998
E07000124,0.4401
E07000125,0.8571
E07000126,0.999
E07000127,0.4822
E07000128,0.9738
E07000129,0.4137
E07000130,0.3606
E07000131,0.4087
E07000132,0.1012
E07000133,0
E07000134,0
E07000135,0.2175
E07000136,0.3878
E07000137,0.3002
E07000138,0.1431
E07000139,0.1774
E07000140,0.5199
E07000141,0.1779
E07000142,0.2277
E07000143,0.2319
E07000144,0
E07000145,0.3535
E07000146,0
E07000147,0
E07000148,0
E07000149,0.1907
E07000150,0
E07000151,0.2536
E07000152,0.5219
E07000153,0.5301
E07000154,0.2586
E07000155,0.2568
E07000156,0.7171
E07000163,0.5333
E07000164,0.8008
E07000165,0.9582
E07000166,0.9248
E07000167,0.7249
E07000168,0.8409
E07000169,0.4607
E07000170,0.3243
E07000171,0.1893
E07000172,0.8796
E07000173,0.3599
E07000174,0.2098
E07000175,0.8126
E07000176,0.892
E07000177,0.929
E07000178,0.9547
E07000179,0.4442
E07000180,0.2825
E07000181,0.1919
E07000187,0.6289
E07000188,0
E07000189,0.0165
E07000192,0.2467
E07000193,0.2358
E07000194,0.7364
E07000195,0.7778
E07000196,0.9025
E07000197,0
E07000198,0.2148
E07000199,0.5726
E07000200,0
E07000202,0.7043
E07000203,0
E07000207,0.3589
E07000208,0.5672
E07000209,0.9992
E07000210,0
E07000211,0.4288
E07000212,0.0742
E07000213,0.7969
E07000214,0.4433
E07000215,0.3845
E07000216,0.7198
E07000217,0.3421
E07000218,0.1258
E07000219,0.9284
E07000220,0.1328
E07000221,0
E07000222,0.672
E07000223,0
E07000224,0.6441
E07000225,0.9696
E07000226,0.4688
E07000227,0.0838
E07000228,0.5525
E07000229,0.6211
E07000234,0.0819
E07000235,0.3012
E07000236,0.208
E07000237,0.0905
E07000238,0.1277
E07000239,0.3784
E07000240,0.2971
E07000241,0.2829
E07000242,0.5358
E07000243,0.2004
E07000244,0.0716
E07000245,0.791
E07000246,0.0993
E08000001,0.9308
E08000002,0.9156
E08000003,0.8975
E08000004,0.8852
E08000005,0.6381
E08000006,0.9636
E08000007,0.5723
E08000008,0.8336
E08000009,0.5892
E08000010,0.4359
E08000011,0.5113
E08000012,0.9035
E08000013,0.6828
E08000014,0.9105
E08000015,0.499
E08000016,0.9417
E08000017,0.6342
E08000018,0.1286
E08000019,0.8194
E08000021,0.8755
E08000022,0.9075
E08000023,0.7571
E08000024,0.9912
E08000025,0.789
E08000026,0.9391
E08000027,0.5174
E08000028,0.7354
E08000029,0.0427
E08000030,0.7909
E08000031,0.867
E08000032,0.9458
E08000033,0.4693
E08000034,0.6988
E08000035,0.702
E08000036,0.3576
E08000037,0.6889
"E09000001,E09000033",0.1112
E09000002,0.9943
E09000003,0.9184
E09000004,0.0615
E09000005,0.8749
E09000006,0.3488
E09000007,0.4579
E09000008,0.989
E09000009,0.5545
E09000010,0.9243
E09000011,0.9029
E09000012,0.9357
E09000013,0.9759
E09000014,0.7251
E09000015,0.9113
E09000016,0.3745
E09000017,0.7631
E09000018,0.3425
E09000019,0.3644
E09000020,0.9722
E09000021,0.3056
E09000022,0.8825
E09000023,0.71
E09000024,0.7563
E09000025,0.8228
E09000026,0.4947
E09000027,0.7714
E09000028,0.8358
E09000029,0.8885
E09000030,0.8135
E09000031,0.9619
E09000032,0.9826
