lad19cd,ex_prob
E06000001,0.743
E06000002,0.0013
E06000003,1e-4
E06000004,0.314
E06000005,0.6583
E06000006,0.7898
E06000007,0.8607
E06000008,0.9067
E06000009,0.192
E06000010,0.4943
E06000011,0.2506
E06000012,0.0498
E06000013,0.059
E06000014,0.5493
E06000015,0.758
E06000016,0.2979
E06000017,0.0092
E06000018,0.4626
E06000019,0.7195
E06000020,0.4855
E06000021,0.4512
E06000022,0.242
E06000023,0.2363
E06000024,0.3574
E06000025,0.5683
E06000026,0.6083
E06000027,0.2865
E06000030,0.7315
E06000031,0.2589
E06000032,0.7163
E06000033,0.1284
E06000034,0.3403
E06000035,0.2889
E06000036,0.3243
E06000037,0.514
E06000038,0.8012
E06000039,0.5921
E06000040,0.4407
E06000041,0.4291
E06000042,0.6137
E06000043,0.7384
E06000044,0.5986
E06000045,0.7414
E06000046,0.3847
E06000047,0.2577
E06000049,0.7446
E06000050,0.6719
E06000051,0.6544
"E06000052,E06000053",0.2814
E06000054,0.5017
E06000055,0.905
E06000056,0.3025
E06000057,0.1871
E06000058,0.8104
E06000059,0.6688
E07000004,0.5026
E07000005,0.2099
E07000006,0.0948
E07000007,0.582
E07000008,0.4268
E07000009,0.7758
E07000010,0.5852
E07000011,0.0308
E07000012,0.1622
E07000026,0.793
E07000027,0.5334
E07000028,0.9566
E07000029,0.9518
E07000030,0.6235
E07000031,0.6816
E07000032,0.2244
E07000033,0.3161
E07000034,0.8688
E07000035,0.2092
E07000036,0.2088
E07000037,0.1746
E07000038,0.0087
E07000039,0.1865
E07000040,0.9637
E07000041,0.2202
E07000042,0.2686
E07000043,0.1168
E07000044,0.0706
E07000045,0.3167
E07000046,0.3146
E07000047,0.0077
E07000061,0.9786
E07000062,0.894
E07000063,0.9723
E07000064,0.4224
E07000065,0.7843
E07000066,0.3964
E07000067,0.6245
E07000068,0.3459
E07000069,0.7262
E07000070,0.5566
E07000071,0.8239
E07000072,0.8225
E07000073,0.619
E07000074,0.7136
E07000075,0.3907
E07000076,0.9743
E07000077,0.3645
E07000078,0.3983
E07000079,0.0684
E07000080,0.3479
E07000081,0.6648
E07000082,0.0934
E07000083,0.445
E07000084,0.6485
E07000085,0.2426
E07000086,0.0766
E07000087,0.5669
E07000088,0.6164
E07000089,0.0839
E07000090,0.8575
E07000091,0.858
E07000092,0.5801
E07000093,0.1507
E07000094,0.8036
E07000095,0.6797
E07000096,0.3118
E07000098,0.5015
E07000099,0.8505
E07000102,0.1128
E07000103,0.528
E07000105,0.6904
E07000106,0.7628
E07000107,0.4524
E07000108,0.5598
E07000109,0.765
E07000110,0.7848
E07000111,0.6942
E07000112,0.042
E07000113,0.3365
E07000114,0.7579
E07000115,0.2416
E07000116,0.3465
E07000117,0.8381
E07000118,0.2816
E07000119,0.0689
E07000120,0.593
E07000121,0.7464
E07000122,0.8335
E07000123,0.0821
E07000124,0.6233
E07000125,0.6514
E07000126,0.0123
E07000127,0.0791
E07000128,0.5257
E07000129,0.6103
E07000130,0.4469
E07000131,0.0808
E07000132,0.0196
E07000133,0.046
E07000134,0.1587
E07000135,0.1578
E07000136,0.3924
E07000137,0.0454
E07000138,0.0932
E07000139,0.3734
E07000140,0.2741
E07000141,0.2579
E07000142,0.2748
E07000143,0.1028
E07000144,0.7187
E07000145,0.9039
E07000146,0.8872
E07000147,0.1088
E07000148,0.7846
E07000149,0.5235
E07000150,0.9812
E07000151,0.1793
E07000152,0.1515
E07000153,0.655
E07000154,0.8617
E07000155,0.2762
E07000156,0.0945
E07000163,0.3245
E07000164,3e-4
E07000165,0.1202
E07000166,0.1723
E07000167,0.3407
E07000168,0.0439
E07000169,0.082
E07000170,0.194
E07000171,0.1867
E07000172,0.0886
E07000173,0.2246
E07000174,0.5185
E07000175,0.1175
E07000176,0.0475
E07000177,0.785
E07000178,0.7147
E07000179,0.6196
E07000180,0.336
E07000181,0.1302
E07000187,0.1718
E07000188,0.3639
E07000189,0.0262
E07000192,0.3222
E07000193,0.5157
E07000194,0.4299
E07000195,0.7187
E07000196,0.7778
E07000197,0.1183
E07000198,0.0297
E07000199,0.3539
E07000200,0.6229
E07000202,0.6844
E07000203,0.1789
E07000207,0.7535
E07000208,0.3805
E07000209,0.2597
E07000210,0.9106
E07000211,0.8088
E07000212,0.5653
E07000213,0.3156
E07000214,0.7515
E07000215,0.4442
E07000216,0.1015
E07000217,0.8387
E07000218,0.0226
E07000219,0.1647
E07000220,0.278
E07000221,0.6574
E07000222,0.9071
E07000223,0.3723
E07000224,0.6337
E07000225,0.8382
E07000226,0.4725
E07000227,0.0882
E07000228,0.1954
E07000229,0.6449
E07000234,0.3369
E07000235,0.1133
E07000236,0.2877
E07000237,0.5021
E07000238,0.4223
E07000239,0.7081
E07000240,0.4137
E07000241,0.9803
E07000242,0.698
E07000243,0.8563
E07000244,0.7686
E07000245,0.2966
E07000246,0.1259
E08000001,0.1738
E08000002,0.3538
E08000003,0.3146
E08000004,0.079
E08000005,0.3994
E08000006,0.6994
E08000007,0.1351
E08000008,0.0902
E08000009,0.1682
E08000010,0.3749
E08000011,0.8464
E08000012,0.8036
E08000013,0.9333
E08000014,0.9345
E08000015,0.9622
E08000016,0.4518
E08000017,0.3046
E08000018,0.6784
E08000019,0.5812
E08000021,0.398
E08000022,0.1443
E08000023,0.0281
E08000024,0.406
E08000025,0.8033
E08000026,0.2407
E08000027,0.5235
E08000028,0.681
E08000029,0.2031
E08000030,0.9488
E08000031,0.8993
E08000032,0.4344
E08000033,0.2501
E08000034,0.3364
E08000035,0.0936
E08000036,0.3161
E08000037,0.1217
"E09000001,E09000033",0.0086
E09000002,0.6902
E09000003,0.6309
E09000004,0.7063
E09000005,0.641
E09000006,0.6253
E09000007,0.2753
E09000008,0.6616
E09000009,0.5569
E09000010,0.5617
E09000011,0.6283
E09000012,0.2999
E09000013,0.1296
E09000014,0.4765
E09000015,0.5705
E09000016,0.7197
E09000017,0.4604
E09000018,0.5577
E09000019,0.5447
E09000020,0.4052
E09000021,0.2945
E09000022,0.8019
E09000023,0.6548
E09000024,0.4821
E09000025,0.5664
E09000026,0.7218
E09000027,0.4069
E09000028,0.6515
E09000029,0.7293
E09000030,0.2685
E09000031,0.4539
E09000032,0.3282
