"name","given","fullpath","mtime","md5"
"cases","/data/covid19/PHE/PHE_2020-11-18/Anonymised Combined Line List 20201118.csv","/data/covid19/PHE/PHE_2020-11-18/Anonymised Combined Line List 20201118.csv",2020-11-18 19:59:49,"175661e48bc3a45a467f2cf8aa3d6fa6"
"flows","/app/Data/Unrestricted/processed/mergedflows.rds","/app/Data/Unrestricted/processed/mergedflows.rds",2020-06-15 14:28:56,"2f34b018ac0995f8e9461f062a068004"
"traffic","/data/covid19/Dft/2020-11-13/201113_OFF_SEN_COVID19_road_traffic_national_table.xlsx","/data/covid19/Dft/2020-11-13/201113_OFF_SEN_COVID19_road_traffic_national_table.xlsx",2020-11-16 21:23:17,"197711cddcc86a0b8317949378d68259"
"areas","/app/Data/Unrestricted/original/geodata/UK2019mod_pop.gpkg","/app/Data/Unrestricted/original/geodata/UK2019mod_pop.gpkg",2020-06-22 08:51:34,"cf99fa0284c96852e73f588f6bb89110"
