lad19cd,ex_prob
E06000001,0.2878
E06000002,0.2859
E06000003,0.9428
E06000004,0.3699
E06000005,0.9376
E06000006,0.2356
E06000007,0.5776
E06000008,0.5173
E06000009,0.7183
E06000010,0.4626
E06000011,0.7257
E06000012,0.3832
E06000013,0.7064
E06000014,0.9615
E06000015,0.5721
E06000016,0.8252
E06000017,0.7726
E06000018,0.9284
E06000019,0.0297
E06000020,0.0817
E06000021,0.7606
E06000022,0.3975
E06000023,0.5149
E06000024,0.8199
E06000025,0.0404
E06000026,0.082
E06000027,0.7898
E06000030,1
E06000031,0.7051
E06000032,0.6529
E06000033,0.6694
E06000034,0.817
E06000035,0.9565
E06000036,0.9813
E06000037,0.9707
E06000038,0.6536
E06000039,0.8649
E06000040,0.8179
E06000041,0.5327
E06000042,0.2803
E06000043,0.8462
E06000044,0.6863
E06000045,0.895
E06000046,0.6591
E06000047,0.4664
E06000049,0.0147
E06000050,0.2451
E06000051,0.619
"E06000052,E06000053",0.0177
E06000054,0.3392
E06000055,0.8101
E06000056,0.2546
E06000057,0.4142
E06000058,0.1189
E06000059,0.01
E07000004,0.7965
E07000005,0.338
E07000006,0.8117
E07000007,0.9551
E07000008,0.2479
E07000009,0.4874
E07000010,0.7951
E07000011,0.5033
E07000012,0.5741
E07000026,0.7823
E07000027,0.8269
E07000028,0.2862
E07000029,0.8488
E07000030,0.7243
E07000031,0.6658
E07000032,0.5012
E07000033,0.223
E07000034,0.9098
E07000035,1
E07000036,0.7246
E07000037,0.8314
E07000038,0.6414
E07000039,0.0653
E07000040,0.5181
E07000041,0.1137
E07000042,0.9015
E07000043,0
E07000044,0
E07000045,0.1308
E07000046,0
E07000047,0
E07000061,0.4071
E07000062,0.55
E07000063,0
E07000064,0
E07000065,0.1845
E07000066,0.0429
E07000067,0.2055
E07000068,0.2144
E07000069,0.049
E07000070,0.8993
E07000071,0.4677
E07000072,0.7821
E07000073,0.5857
E07000074,0.337
E07000075,0.6836
E07000076,0.3897
E07000077,0
E07000078,0
E07000079,0.6127
E07000080,0.8149
E07000081,0
E07000082,0.1402
E07000083,0.2816
E07000084,0.7754
E07000085,0.2132
E07000086,0
E07000087,0.5254
E07000088,0.5129
E07000089,0.7483
E07000090,0.6193
E07000091,0.3936
E07000092,0.4974
E07000093,0.6934
E07000094,0.4128
E07000095,0
E07000096,0.7711
E07000098,0.7158
E07000099,0.1804
E07000102,0.6232
E07000103,0.7658
E07000105,0.8446
E07000106,0.108
E07000107,0.3556
E07000108,0.6983
E07000109,0.7233
E07000110,0
E07000111,0.3109
E07000112,0.4924
E07000113,0.0503
E07000114,0.5305
E07000115,0.8229
E07000116,0
E07000117,0.5761
E07000118,0.9916
E07000119,0.2163
E07000120,0.3801
E07000121,0.8162
E07000122,0.6767
E07000123,0.9392
E07000124,0.4912
E07000125,0.3841
E07000126,0.8513
E07000127,0.7901
E07000128,0.7549
E07000129,0.8461
E07000130,0.4573
E07000131,0.2967
E07000132,0.0957
E07000133,0.981
E07000134,0.7136
E07000135,0.3777
E07000136,0.9593
E07000137,0.0449
E07000138,0.0209
E07000139,0.2719
E07000140,0.7058
E07000141,0.0415
E07000142,0.0144
E07000143,1
E07000144,0.1631
E07000145,0
E07000146,0.2322
E07000147,0
E07000148,0.0788
E07000149,0.0731
E07000150,0.9704
E07000151,0.5232
E07000152,0.2877
E07000153,0.7175
E07000154,0.1243
E07000155,0.506
E07000156,0.173
E07000163,0.8174
E07000164,0.1774
E07000165,0.2182
E07000166,0.0899
E07000167,0.3529
E07000168,0.9762
E07000169,0.5224
E07000170,0.8558
E07000171,0.5635
E07000172,0.486
E07000173,0.6847
E07000174,0.8762
E07000175,0.8556
E07000176,0.0453
E07000177,0.1576
E07000178,0.1445
E07000179,0.6068
E07000180,0.4082
E07000181,0.4878
E07000187,0.7359
E07000188,0.987
E07000189,0.1771
E07000192,0.4138
E07000193,0.8324
E07000194,0.0812
E07000195,0.6128
E07000196,0.1226
E07000197,0.1711
E07000198,0.427
E07000199,0.7965
E07000200,0.6234
E07000202,0.6617
E07000203,0.5694
E07000207,0.8071
E07000208,0.4878
E07000209,0.5258
E07000210,0.7183
E07000211,0.8609
E07000212,0.9085
E07000213,0.2467
E07000214,0.7303
E07000215,0.7924
E07000216,0.2103
E07000217,0.3994
E07000218,0.4594
E07000219,0.6246
E07000220,0.4589
E07000221,0.4355
E07000222,0.5597
E07000223,0.6763
E07000224,0.0322
E07000225,0.6556
E07000226,0.7512
E07000227,0.0565
E07000228,0.2636
E07000229,0.4959
E07000234,0.31
E07000235,0.1762
E07000236,0.2671
E07000237,0.3615
E07000238,0.6316
E07000239,0.5065
E07000240,0.888
E07000241,0.1863
E07000242,0.0542
E07000243,0.9323
E07000244,0.0183
E07000245,0.0817
E07000246,0.5527
E08000001,0.364
E08000002,0.8309
E08000003,0.6747
E08000004,0.6328
E08000005,0.8239
E08000006,0.2629
E08000007,0.2704
E08000008,0.641
E08000009,0.9016
E08000010,0.5766
E08000011,0.3253
E08000012,0.8739
E08000013,0.6287
E08000014,0.822
E08000015,0.3521
E08000016,0.7639
E08000017,0.7755
E08000018,0.9444
E08000019,0.8185
E08000021,0.1142
E08000022,0.5281
E08000023,0.8103
E08000024,0.7218
E08000025,0.6465
E08000026,0.6558
E08000027,0.9611
E08000028,0.8468
E08000029,0.3697
E08000030,0.1055
E08000031,0.1269
E08000032,0.9466
E08000033,0.4342
E08000034,0.5478
E08000035,0.7332
E08000036,0.9655
E08000037,0.1378
"E09000001,E09000033",0.6191
E09000002,0.5171
E09000003,0.1602
E09000004,0.1082
E09000005,0.8804
E09000006,0.7434
E09000007,0.1191
E09000008,0.4002
E09000009,0.7222
E09000010,0.0977
E09000011,0.6053
E09000012,0.4594
E09000013,0.3901
E09000014,0.8651
E09000015,0.1372
E09000016,0.619
E09000017,0.9506
E09000018,0.9773
E09000019,0.2814
E09000020,0.9772
E09000021,0.7496
E09000022,0.4593
E09000023,0.3962
E09000024,0.9563
E09000025,0.8475
E09000026,0.8778
E09000027,0.939
E09000028,0.7813
E09000029,0.6864
E09000030,0.7721
E09000031,0.8862
E09000032,0.8755
