"name","given","fullpath","mtime","md5"
"cases","/data/covid19/PHE/PHE_2021-07-26/Anonymised Combined Line List 20210726.csv","/data/covid19/PHE/PHE_2021-07-26/Anonymised Combined Line List 20210726.csv",2021-07-26 16:44:55,"e1ba3b08926d4785a8be5c27a8db925d"
"flows","/app/Data/Unrestricted/processed/mergedflows.rds","/app/Data/Unrestricted/processed/mergedflows.rds",2020-06-15 14:28:56,"2f34b018ac0995f8e9461f062a068004"
"traffic","/data/covid19/Dft/2021-01-29/210129_OFF_SEN_COVID19_road_traffic_national_table.xlsx","/data/covid19/Dft/2021-01-29/210129_OFF_SEN_COVID19_road_traffic_national_table.xlsx",2021-02-01 21:42:24,"7243c505164f6f2f7c406aececcde41e"
"areas","/app/Data/Unrestricted/original/geodata/UK2019mod_pop.gpkg","/app/Data/Unrestricted/original/geodata/UK2019mod_pop.gpkg",2020-06-22 08:51:34,"cf99fa0284c96852e73f588f6bb89110"
