lad19cd,ex_prob
E06000001,0.5684
E06000002,0.8061
E06000003,0.2825
E06000004,0.3307
E06000005,0.4811
E06000006,0.0201
E06000007,0.3182
E06000008,0.91
E06000009,0.7965
E06000010,0.429
E06000011,0.3764
E06000012,0.8217
E06000013,0.2831
E06000014,0.2898
E06000015,0.5747
E06000016,0.4302
E06000017,0.1656
E06000018,0.4451
E06000019,0.3253
E06000020,0.1435
E06000021,0.4141
E06000022,0.1172
E06000023,0.3385
E06000024,0.1613
E06000025,0.0691
E06000026,0.1089
E06000027,0.9462
E06000030,0.3377
E06000031,0.8496
E06000032,0.9122
E06000033,0.029
E06000034,0.2368
E06000035,0.1006
E06000036,0.4792
E06000037,0.032
E06000038,0.1437
E06000039,0.5843
E06000040,0.2113
E06000041,0.1169
E06000042,0.1002
E06000043,0.464
E06000044,0.2846
E06000045,0.4957
E06000046,0.2266
E06000047,0.2183
E06000049,0.185
E06000050,0.0413
E06000051,0.0593
"E06000052,E06000053",0.0135
E06000054,0.041
E06000055,0.4495
E06000056,0.0829
E06000057,0.4746
E06000058,0.4959
E06000059,0.0707
E07000004,0.6075
E07000005,0.3457
E07000006,0.0437
E07000007,0.023
E07000008,0.4556
E07000009,0.3312
E07000010,0.0691
E07000011,0.1662
E07000012,0.4935
E07000026,0.2078
E07000027,0.6421
E07000028,0.0547
E07000029,0.7953
E07000030,0.0046
E07000031,0.0413
E07000032,0.2425
E07000033,0.6104
E07000034,0.1079
E07000035,0.271
E07000036,0.2481
E07000037,0.0783
E07000038,0.2207
E07000039,0.4708
E07000040,0.1588
E07000041,0.4072
E07000042,0.0296
E07000043,0.9691
E07000044,0.0188
E07000045,0.0744
E07000046,0.546
E07000047,0.0271
E07000061,0.8792
E07000062,0.4138
E07000063,0.0104
E07000064,0.0664
E07000065,0.1827
E07000066,0.2143
E07000067,0.2527
E07000068,0.6082
E07000069,0.051
E07000070,0.091
E07000071,0.7173
E07000072,0.4241
E07000073,0.2834
E07000074,0.1958
E07000075,0.1308
E07000076,0.0525
E07000077,0.3318
E07000078,0.1791
E07000079,0.6447
E07000080,0.4803
E07000081,0.4622
E07000082,0.8034
E07000083,0.1834
E07000084,0.1226
E07000085,0.1607
E07000086,0.5361
E07000087,0.2505
E07000088,0.0726
E07000089,0.2389
E07000090,0.2962
E07000091,0.0188
E07000092,0.0159
E07000093,0.0842
E07000094,0.331
E07000095,0.2041
E07000096,0.5122
E07000098,0.6733
E07000099,0.1781
E07000102,0.4354
E07000103,0.9276
E07000105,0.0085
E07000106,0.053
E07000107,0.5989
E07000108,0.0528
E07000109,0.4568
E07000110,0.3593
E07000111,0.0171
E07000112,0.0162
E07000113,0.3286
E07000114,0.0151
E07000115,0.1965
E07000116,0.4927
E07000117,0.0361
E07000118,0.5601
E07000119,0.0414
E07000120,0.3357
E07000121,0.8682
E07000122,0.6057
E07000123,0.2027
E07000124,0.6767
E07000125,0.6153
E07000126,0.1868
E07000127,0.1584
E07000128,0.3695
E07000129,0.0575
E07000130,0.2109
E07000131,0.281
E07000132,0.1559
E07000133,0.4585
E07000134,0.1833
E07000135,0.4641
E07000136,0.9585
E07000137,0.6834
E07000138,0.4385
E07000139,0.1512
E07000140,0.3641
E07000141,0.2537
E07000142,0.0312
E07000143,0.0308
E07000144,0.0156
E07000145,0.8321
E07000146,0.086
E07000147,0.1481
E07000148,0.9757
E07000149,0.0426
E07000150,0.6072
E07000151,0.2836
E07000152,0.061
E07000153,0.4849
E07000154,0.5268
E07000155,0.1751
E07000156,0.4544
E07000163,0.4522
E07000164,0.0286
E07000165,0.0336
E07000166,0.3044
E07000167,0.2976
E07000168,0.5057
E07000169,0.3569
E07000170,0.448
E07000171,0.0345
E07000172,0.0191
E07000173,0.2142
E07000174,0.4314
E07000175,0.5991
E07000176,0.1626
E07000177,0.128
E07000178,0.0113
E07000179,0.0395
E07000180,0.0697
E07000181,0.0029
E07000187,0.4106
E07000188,0.8302
E07000189,0.4266
E07000192,0.0199
E07000193,0.0109
E07000194,0.8342
E07000195,0.2243
E07000196,0.0953
E07000197,0.2307
E07000198,0.5807
E07000199,0.1442
E07000200,0.0793
E07000202,0.0932
E07000203,0.2127
E07000207,0.9508
E07000208,0.4013
E07000209,0.1203
E07000210,0.7759
E07000211,0.3775
E07000212,0.1269
E07000213,0.0256
E07000214,0.7711
E07000215,0.3391
E07000216,0.3681
E07000217,0.6837
E07000218,0.004
E07000219,0.6191
E07000220,0.5656
E07000221,0.1711
E07000222,0.0122
E07000223,0.2875
E07000224,0.3325
E07000225,0.2301
E07000226,0.2322
E07000227,0.2627
E07000228,0.0552
E07000229,0.1241
E07000234,0.1272
E07000235,0.0993
E07000236,0.7782
E07000237,0.7502
E07000238,0.0233
E07000239,0.2829
E07000240,0.0711
E07000241,0.2138
E07000242,0.037
E07000243,0.0828
E07000244,0.1497
E07000245,0.5338
E07000246,0.6533
E08000001,0.1344
E08000002,0.7311
E08000003,0.0959
E08000004,0.3664
E08000005,0.6355
E08000006,0.7992
E08000007,0.3341
E08000008,0.0702
E08000009,0.5626
E08000010,0.0613
E08000011,0.6085
E08000012,0.436
E08000013,0.3163
E08000014,0.1739
E08000015,0.2271
E08000016,0.6584
E08000017,0.8349
E08000018,0.8226
E08000019,0.3627
E08000021,0.2819
E08000022,0.3364
E08000023,0.3372
E08000024,0.1257
E08000025,0.0682
E08000026,0.2121
E08000027,0.0934
E08000028,0.0148
E08000029,0.009
E08000030,0.0712
E08000031,0.6812
E08000032,0.4373
E08000033,0.095
E08000034,0.0802
E08000035,0.2108
E08000036,0.0624
E08000037,0.2626
"E09000001,E09000033",4e-4
E09000002,0.5429
E09000003,0.3325
E09000004,0.2404
E09000005,0.2725
E09000006,0.2401
E09000007,0.2719
E09000008,0.6703
E09000009,0.3573
E09000010,0.2766
E09000011,0.18
E09000012,0.2462
E09000013,0.4168
E09000014,0.6376
E09000015,0.3073
E09000016,0.523
E09000017,0.138
E09000018,0.4902
E09000019,0.1839
E09000020,0.291
E09000021,0.5339
E09000022,0.3926
E09000023,0.476
E09000024,0.4417
E09000025,0.5833
E09000026,0.3245
E09000027,0.5541
E09000028,0.513
E09000029,0.0288
E09000030,0.354
E09000031,0.7762
E09000032,0.5889
