"name","given","fullpath","mtime","md5"
"cases","/data/covid19/PHE/PHE_2021-01-13/Anonymised Combined Line List 20210113.csv","/data/covid19/PHE/PHE_2021-01-13/Anonymised Combined Line List 20210113.csv",2021-01-13 16:01:28,"381159f33e7bb30a059d67fa80645a0b"
"flows","/app/Data/Unrestricted/processed/mergedflows.rds","/app/Data/Unrestricted/processed/mergedflows.rds",2020-06-15 14:28:56,"2f34b018ac0995f8e9461f062a068004"
"traffic","/data/covid19/Dft/2021-01-08/210108_OFF_SEN_COVID19_road_traffic_national_table.xlsx","/data/covid19/Dft/2021-01-08/210108_OFF_SEN_COVID19_road_traffic_national_table.xlsx",2021-01-10 14:39:27,"112e1b3ef2100810efed13ba39e285bd"
"areas","/app/Data/Unrestricted/original/geodata/UK2019mod_pop.gpkg","/app/Data/Unrestricted/original/geodata/UK2019mod_pop.gpkg",2020-06-22 08:51:34,"cf99fa0284c96852e73f588f6bb89110"
