lad19cd,ex_prob
E06000001,0.2802
E06000002,0.1003
E06000003,0.6443
E06000004,0.2318
E06000005,0.1026
E06000006,0.7161
E06000007,0.3911
E06000008,0.0569
E06000009,0.0178
E06000010,0.2546
E06000011,0.2045
E06000012,0.4293
E06000013,0.4788
E06000014,0.2958
E06000015,0.3987
E06000016,0.6794
E06000017,0.2271
E06000018,0.5464
E06000019,0.2353
E06000020,0.6983
E06000021,0.1986
E06000022,0.3859
E06000023,0.0225
E06000024,0.1667
E06000025,0.007
E06000026,0.0253
E06000027,0.0551
E06000030,0.0026
E06000031,0.4761
E06000032,0.7534
E06000033,0.0167
E06000034,0.4297
E06000035,0.6545
E06000036,0.0299
E06000037,0.2874
E06000038,0.079
E06000039,0.1565
E06000040,0.1455
E06000041,0.279
E06000042,0.5302
E06000043,0.3198
E06000044,0.4904
E06000045,0.2574
E06000046,0.2792
E06000047,0.0584
E06000049,0.0143
E06000050,0.0195
E06000051,0.5049
"E06000052,E06000053",0.0086
E06000054,0.1289
E06000055,0.1622
E06000056,0.2499
E06000057,0.0319
E06000058,0.0291
E06000059,0.1646
E07000004,0.3169
E07000005,0.1827
E07000006,0.2187
E07000007,0.1504
E07000008,0.4711
E07000009,0.4642
E07000010,0.7648
E07000011,0.2636
E07000012,0.2777
E07000026,0.4257
E07000027,0.302
E07000028,0.1093
E07000029,0.738
E07000030,0.1008
E07000031,0.002
E07000032,0.5166
E07000033,0.4216
E07000034,0.4814
E07000035,0.3805
E07000036,0.6241
E07000037,0.6368
E07000038,0.114
E07000039,0.324
E07000040,0.0297
E07000041,0.2749
E07000042,0.2246
E07000043,0.1089
E07000044,0.0132
E07000045,9e-4
E07000046,0.2076
E07000047,0
E07000061,0.0767
E07000062,0.0421
E07000063,0.9891
E07000064,0.2409
E07000065,0.0906
E07000066,0.3819
E07000067,0.1416
E07000068,0.1189
E07000069,0.8906
E07000070,0.4519
E07000071,0.037
E07000072,0.2011
E07000073,0.59
E07000074,0.5245
E07000075,0.733
E07000076,0.3333
E07000077,0.0959
E07000078,0.3477
E07000079,0.2235
E07000080,0.1459
E07000081,3e-4
E07000082,0.0122
E07000083,0.2979
E07000084,0.1886
E07000085,0.6035
E07000086,0.2339
E07000087,0.1595
E07000088,0.2317
E07000089,0.0348
E07000090,0.0858
E07000091,0.1601
E07000092,0.4227
E07000093,0.1184
E07000094,0.137
E07000095,0.0261
E07000096,0.8464
E07000098,0.8389
E07000099,0.0086
E07000102,0.0053
E07000103,0.1172
E07000105,0.3545
E07000106,0.3998
E07000107,0.3262
E07000108,0.8127
E07000109,0.1173
E07000110,0.2296
E07000111,0.1065
E07000112,0.2752
E07000113,0.5102
E07000114,0.5673
E07000115,0.0023
E07000116,0.2301
E07000117,1e-4
E07000118,0.1717
E07000119,0.594
E07000120,0.1082
E07000121,0.3116
E07000122,0.1151
E07000123,0.2531
E07000124,0.0655
E07000125,0.4696
E07000126,0.2953
E07000127,0.6752
E07000128,0.0074
E07000129,0.2775
E07000130,0.3827
E07000131,0.18
E07000132,0.316
E07000133,0.0212
E07000134,0.6346
E07000135,0.3789
E07000136,0.9386
E07000137,0.1441
E07000138,0.5944
E07000139,0.1671
E07000140,0.631
E07000141,0.4279
E07000142,0.0171
E07000143,0.0695
E07000144,0.0279
E07000145,0.7012
E07000146,0.7617
E07000147,0.3093
E07000148,0.0639
E07000149,0.0244
E07000150,0.5419
E07000151,0.0463
E07000152,0.0377
E07000153,0.3727
E07000154,0.0253
E07000155,0.0233
E07000156,0.4103
E07000163,0.0165
E07000164,0.1068
E07000165,0.176
E07000166,0.2069
E07000167,0.0398
E07000168,0.0051
E07000169,0.2742
E07000170,0.2185
E07000171,0.2389
E07000172,0.5992
E07000173,0.6523
E07000174,0.8428
E07000175,0.0592
E07000176,0.085
E07000177,0.7063
E07000178,0.0781
E07000179,0.0214
E07000180,0.1661
E07000181,0.0489
E07000187,0.3478
E07000188,0.1123
E07000189,0.2251
E07000192,0.4211
E07000193,0.3901
E07000194,0.0386
E07000195,0.272
E07000196,0.5707
E07000197,0.1257
E07000198,0.1644
E07000199,0.1286
E07000200,0.1797
E07000202,0.8849
E07000203,0.0054
E07000207,0.5631
E07000208,0.0569
E07000209,0.1673
E07000210,0.307
E07000211,0.1972
E07000212,0.0503
E07000213,0.2029
E07000214,0.2266
E07000215,0.492
E07000216,0.2836
E07000217,0.7877
E07000218,0.0099
E07000219,0.4206
E07000220,0.1062
E07000221,0.1367
E07000222,0.2616
E07000223,0.1032
E07000224,0.252
E07000225,0.2686
E07000226,0.0315
E07000227,0.0803
E07000228,0.65
E07000229,0.0255
E07000234,0.7182
E07000235,0.422
E07000236,0.1716
E07000237,0.5799
E07000238,0.9242
E07000239,0.052
E07000240,0.0535
E07000241,0.347
E07000242,0.012
E07000243,0.0453
E07000244,0.1674
E07000245,0.0057
E07000246,0.159
E08000001,0.1766
E08000002,0.5446
E08000003,0.0011
E08000004,0.6588
E08000005,0.4549
E08000006,0.3327
E08000007,0.2742
E08000008,0.2455
E08000009,0.0768
E08000010,0.3292
E08000011,0.7771
E08000012,0.5256
E08000013,0.742
E08000014,0.474
E08000015,0.2704
E08000016,0.6046
E08000017,0.0958
E08000018,0.4129
E08000019,0.333
E08000021,0.3385
E08000022,0.7357
E08000023,0.4203
E08000024,0.0949
E08000025,0.6573
E08000026,0.5264
E08000027,0.172
E08000028,0.1061
E08000029,0.548
E08000030,0.5302
E08000031,0.3446
E08000032,0.2833
E08000033,0.3732
E08000034,0.2062
E08000035,0.1754
E08000036,0.2659
E08000037,0.219
"E09000001,E09000033",0.0221
E09000002,0.1667
E09000003,0.1051
E09000004,0.0764
E09000005,0.7634
E09000006,0.205
E09000007,0.5058
E09000008,0.3914
E09000009,0.7279
E09000010,0.2525
E09000011,0.2951
E09000012,0.1434
E09000013,0.8724
E09000014,0.4386
E09000015,0.6691
E09000016,0.0901
E09000017,0.0701
E09000018,0.471
E09000019,0.3571
E09000020,0.0452
E09000021,0.1209
E09000022,0.0741
E09000023,0.1041
E09000024,0.0689
E09000025,0.0268
E09000026,0.044
E09000027,0.3488
E09000028,0.1212
E09000029,0.38
E09000030,0.3931
E09000031,0.0362
E09000032,0.0428
