lad19cd,ex_prob
E06000001,0.9559
E06000002,0.828
E06000003,0.9505
E06000004,0.8198
E06000005,0.8928
E06000006,0.6452
E06000007,0.6907
E06000008,0.9595
E06000009,0.9854
E06000010,0.5046
E06000011,0.6683
E06000012,0.9314
E06000013,0.6672
E06000014,0.8401
E06000015,0.7218
E06000016,0.7647
E06000017,0.3737
E06000018,0.4539
E06000019,0.3876
E06000020,0.8807
E06000021,0.8744
E06000022,0.2599
E06000023,0.712
E06000024,0.1303
E06000025,0.315
E06000026,0.6824
E06000027,0.7619
E06000030,0.5309
E06000031,0.4848
E06000032,0.9073
E06000033,0.5167
E06000034,0.8343
E06000035,0.1149
E06000036,0.7028
E06000037,0.157
E06000038,0.5137
E06000039,0.8959
E06000040,0.8557
E06000041,0.3491
E06000042,0.1245
E06000043,0.2943
E06000044,0.7048
E06000045,0.4479
E06000046,0.1057
E06000047,0.5925
E06000049,0.4276
E06000050,0.4749
E06000051,0.3712
"E06000052,E06000053",0.0021
E06000054,0.2407
E06000055,0.5134
E06000056,0.2552
E06000057,0.6116
E06000058,0.3519
E06000059,0.2571
E07000004,0.2456
E07000005,0.2831
E07000006,0.476
E07000007,0.1426
E07000008,0.7195
E07000009,0.2247
E07000010,0.3993
E07000011,0.2514
E07000012,0.0677
E07000026,0.2889
E07000027,0.9884
E07000028,0.9849
E07000029,0.2807
E07000030,0.7537
E07000031,0.5
E07000032,0.7156
E07000033,0.8065
E07000034,0.4082
E07000035,0.6428
E07000036,0.8385
E07000037,0.9794
E07000038,0.8472
E07000039,0.8978
E07000040,0.4112
E07000041,0.4742
E07000042,0.2624
E07000043,0.412
E07000044,0.0269
E07000045,0.163
E07000046,0.0281
E07000047,0.3923
E07000061,0.4495
E07000062,0.2403
E07000063,0.2215
E07000064,0.1476
E07000065,0.3322
E07000066,0.7457
E07000067,0.4452
E07000068,0.826
E07000069,0.9395
E07000070,0.4856
E07000071,0.8314
E07000072,0.7373
E07000073,0.565
E07000074,0.5831
E07000075,0.4219
E07000076,0.7925
E07000077,0.4016
E07000078,0.279
E07000079,0.076
E07000080,0.3601
E07000081,0.2561
E07000082,0.3569
E07000083,0.1142
E07000084,0.2422
E07000085,0.0751
E07000086,0.4841
E07000087,0.2246
E07000088,0.0227
E07000089,0.5402
E07000090,0.0484
E07000091,0.3897
E07000092,0.9068
E07000093,0.407
E07000094,0.1701
E07000095,0.5335
E07000096,0.2853
E07000098,0.4929
E07000099,0.4574
E07000102,0.8627
E07000103,0.4907
E07000105,0.1123
E07000106,0.2088
E07000107,0.2048
E07000108,0.4239
E07000109,0.3837
E07000110,0.1709
E07000111,0.2387
E07000112,0.1074
E07000113,0.8651
E07000114,0.2225
E07000115,0.1476
E07000116,0.2095
E07000117,0.8673
E07000118,0.8563
E07000119,0.7254
E07000120,0.961
E07000121,0.9615
E07000122,0.8502
E07000123,0.8337
E07000124,0.9517
E07000125,0.9988
E07000126,0.8793
E07000127,0.897
E07000128,0.9473
E07000129,0.2598
E07000130,0.811
E07000131,0.3965
E07000132,0.6627
E07000133,0.4243
E07000134,0.0986
E07000135,0.828
E07000136,0.8356
E07000137,0.6364
E07000138,0.8437
E07000139,0.3627
E07000140,0.4757
E07000141,0.5965
E07000142,0.0154
E07000143,0.4853
E07000144,0.1515
E07000145,0.8249
E07000146,0.0768
E07000147,0.203
E07000148,0.5989
E07000149,0.2581
E07000150,0.1304
E07000151,0.1321
E07000152,0.8581
E07000153,0.7596
E07000154,0.6291
E07000155,0.4677
E07000156,0.591
E07000163,0.0886
E07000164,0.1659
E07000165,0.4341
E07000166,0.256
E07000167,0.2469
E07000168,0.5282
E07000169,0.6351
E07000170,0.8812
E07000171,0.9081
E07000172,0.6868
E07000173,0.8338
E07000174,0.9785
E07000175,0.6723
E07000176,0.7629
E07000177,0.3539
E07000178,0.4411
E07000179,0.4655
E07000180,0.3693
E07000181,0.3998
E07000187,0.1151
E07000188,0.614
E07000189,0.0082
E07000192,0.9915
E07000193,0.7149
E07000194,0.7294
E07000195,0.7679
E07000196,0.9268
E07000197,0.8854
E07000198,0.9216
E07000199,0.8294
E07000200,0.2199
E07000202,0.136
E07000203,0.398
E07000207,0.8346
E07000208,0.3901
E07000209,0.2999
E07000210,0.3227
E07000211,0.4687
E07000212,0.4624
E07000213,0.515
E07000214,0.338
E07000215,0.6853
E07000216,0.6655
E07000217,0.7157
E07000218,0.1001
E07000219,0.5244
E07000220,0.4241
E07000221,0.5611
E07000222,0.7887
E07000223,0.0934
E07000224,0.4295
E07000225,0.0994
E07000226,0.0531
E07000227,0.3298
E07000228,0.1766
E07000229,0.4744
E07000234,0.7671
E07000235,0.2756
E07000236,0.5818
E07000237,0.4521
E07000238,0.3655
E07000239,0.2751
E07000240,0.2292
E07000241,0.7708
E07000242,0.6093
E07000243,0.3428
E07000244,0.1007
E07000245,0.445
E07000246,0.1979
E08000001,0.8987
E08000002,0.8884
E08000003,0.3979
E08000004,0.9198
E08000005,0.9153
E08000006,0.8597
E08000007,0.7064
E08000008,0.9265
E08000009,0.3832
E08000010,0.858
E08000011,0.8252
E08000012,0.4954
E08000013,0.7088
E08000014,0.7173
E08000015,0.6191
E08000016,0.9806
E08000017,0.8968
E08000018,0.8677
E08000019,0.5507
E08000021,0.3397
E08000022,0.4943
E08000023,0.762
E08000024,0.8129
E08000025,0.3287
E08000026,0.5724
E08000027,0.7626
E08000028,0.8193
E08000029,0.5418
E08000030,0.7151
E08000031,0.7512
E08000032,0.6099
E08000033,0.8544
E08000034,0.7389
E08000035,0.3597
E08000036,0.7496
E08000037,0.5093
"E09000001,E09000033",1e-4
E09000002,0.5367
E09000003,0.3561
E09000004,0.2469
E09000005,0.2055
E09000006,0.5269
E09000007,0.1927
E09000008,0.2441
E09000009,0.5672
E09000010,0.818
E09000011,0.4424
E09000012,0.8569
E09000013,0.5044
E09000014,0.5184
E09000015,0.5994
E09000016,0.7407
E09000017,0.4311
E09000018,0.5147
E09000019,0.4132
E09000020,0.6659
E09000021,0.8551
E09000022,0.6016
E09000023,0.2439
E09000024,0.5808
E09000025,0.5721
E09000026,0.7407
E09000027,0.8062
E09000028,0.1942
E09000029,0.4675
E09000030,0.5566
E09000031,0.4506
E09000032,0.4294
