lad19cd,ex_prob
E06000001,0.1941
E06000002,0.4975
E06000003,0.3013
E06000004,0.5075
E06000005,0.2866
E06000006,0.2003
E06000007,0.2601
E06000008,0.8691
E06000009,0.5147
E06000010,0.3602
E06000011,0.2151
E06000012,0.8208
E06000013,0.058
E06000014,0.1505
E06000015,0.5056
E06000016,0.3914
E06000017,0.7698
E06000018,0.3936
E06000019,0.0809
E06000020,0.2352
E06000021,0.1306
E06000022,0.1768
E06000023,0.0902
E06000024,0.209
E06000025,0.4029
E06000026,0.0836
E06000027,0.3868
E06000030,0.0722
E06000031,0.0275
E06000032,0.402
E06000033,0.475
E06000034,0.225
E06000035,0.0253
E06000036,0.0399
E06000037,0.7041
E06000038,0.5449
E06000039,0.4286
E06000040,0.2297
E06000041,0.019
E06000042,0.5061
E06000043,0.3307
E06000044,0.5187
E06000045,0.3646
E06000046,0.049
E06000047,0.1878
E06000049,0.0572
E06000050,0.2314
E06000051,0.2269
"E06000052,E06000053",0.0119
E06000054,0.1655
E06000055,0.1557
E06000056,0.0673
E06000057,0.4517
E06000058,0.8189
E06000059,0.3222
E07000004,0.792
E07000005,0.6839
E07000006,0.6919
E07000007,0.634
E07000008,0.5533
E07000009,0.0156
E07000010,0.0864
E07000011,0.1988
E07000012,0.0479
E07000026,0.1448
E07000027,0.1755
E07000028,0.5851
E07000029,0.0773
E07000030,0.2668
E07000031,0.2532
E07000032,0.0765
E07000033,0.4533
E07000034,0.4117
E07000035,0.5279
E07000036,0.1126
E07000037,0.0256
E07000038,0.8181
E07000039,0.2531
E07000040,0.3041
E07000041,0.9997
E07000042,0.2599
E07000043,0.098
E07000044,0.0014
E07000045,0.249
E07000046,0.0653
E07000047,0.0757
E07000061,0.0156
E07000062,0.3616
E07000063,0.4072
E07000064,0.004
E07000065,0.1892
E07000066,0.6505
E07000067,0.6674
E07000068,0.3686
E07000069,0.1949
E07000070,0.0404
E07000071,0.291
E07000072,0.0965
E07000073,0.0758
E07000074,0.3611
E07000075,0.9273
E07000076,0.3637
E07000077,0.6398
E07000078,0.0015
E07000079,0.057
E07000080,0.2118
E07000081,0.0423
E07000082,0.1743
E07000083,0.0138
E07000084,0.0522
E07000085,0.3654
E07000086,0.032
E07000087,0.8962
E07000088,0.7905
E07000089,0.1449
E07000090,0.7997
E07000091,0.1763
E07000092,0.0964
E07000093,0.1391
E07000094,0.1209
E07000095,0.1546
E07000096,0.0141
E07000098,0.2056
E07000099,0.5979
E07000102,0.2644
E07000103,0.5026
E07000105,0.2326
E07000106,0.1181
E07000107,0.6811
E07000108,0.0824
E07000109,0.474
E07000110,0.0928
E07000111,0.0622
E07000112,0.3491
E07000113,0.5316
E07000114,0.4744
E07000115,0.3407
E07000116,0.1615
E07000117,0.5625
E07000118,0.9194
E07000119,0.6132
E07000120,0.7775
E07000121,0.2842
E07000122,0.3574
E07000123,0.6031
E07000124,0.5102
E07000125,0.2528
E07000126,0.2735
E07000127,0.635
E07000128,0.7904
E07000129,0.2793
E07000130,0.2188
E07000131,0.1512
E07000132,0.4113
E07000133,0.9043
E07000134,0.5514
E07000135,0.5224
E07000136,0.3266
E07000137,0.2688
E07000138,0.267
E07000139,0.3016
E07000140,0.0868
E07000141,0.1254
E07000142,0.6265
E07000143,0.296
E07000144,0.1147
E07000145,0.3026
E07000146,0.1512
E07000147,0.044
E07000148,0.3275
E07000149,0.0012
E07000150,0.6405
E07000151,0.7959
E07000152,0.1677
E07000153,0.7699
E07000154,0.6977
E07000155,0.1996
E07000156,0.2384
E07000163,0.4911
E07000164,0.0912
E07000165,0.6681
E07000166,0.8141
E07000167,0.0638
E07000168,0.2067
E07000169,0.1057
E07000170,0.2286
E07000171,0.2522
E07000172,0.3913
E07000173,0.1787
E07000174,0.5697
E07000175,0.0408
E07000176,0.9903
E07000177,0.1457
E07000178,0.7586
E07000179,0.0635
E07000180,0.2856
E07000181,0.0371
E07000187,0.1478
E07000188,0.3031
E07000189,0.0491
E07000192,0.6563
E07000193,0.8319
E07000194,0.3863
E07000195,0.0982
E07000196,0.2285
E07000197,0.6313
E07000198,0.3421
E07000199,0.9853
E07000200,0.3507
E07000202,0.3911
E07000203,0.295
E07000207,0.021
E07000208,0.6367
E07000209,0.0442
E07000210,0.0414
E07000211,0.0749
E07000212,0.023
E07000213,0.4601
E07000214,0.2394
E07000215,0.0365
E07000216,0.1804
E07000217,0.3257
E07000218,0.895
E07000219,0.4645
E07000220,0.2646
E07000221,0.0622
E07000222,0.0207
E07000223,0.4101
E07000224,0.5859
E07000225,0.3643
E07000226,0.0679
E07000227,0.0258
E07000228,0.6089
E07000229,0.1427
E07000234,0.068
E07000235,0.7691
E07000236,0.56
E07000237,0.1542
E07000238,0.2526
E07000239,0.7994
E07000240,0.1038
E07000241,0.2463
E07000242,0.4774
E07000243,0.617
E07000244,0.543
E07000245,0.1607
E07000246,0.5238
E08000001,0.7466
E08000002,0.4654
E08000003,0.9711
E08000004,0.3979
E08000005,0.7437
E08000006,0.4651
E08000007,0.4146
E08000008,0.562
E08000009,0.621
E08000010,0.7654
E08000011,0.1245
E08000012,0.2756
E08000013,0.0234
E08000014,0.144
E08000015,0.0915
E08000016,0.4368
E08000017,0.9984
E08000018,0.347
E08000019,0.563
E08000021,0.2876
E08000022,0.0857
E08000023,0.2273
E08000024,0.1258
E08000025,0.5389
E08000026,0.387
E08000027,0.1819
E08000028,0.6294
E08000029,0.3803
E08000030,0.4936
E08000031,0.1177
E08000032,0.1996
E08000033,0.1982
E08000034,0.1186
E08000035,0.6974
E08000036,0.187
E08000037,0.0122
"E09000001,E09000033",0.0301
E09000002,0.5242
E09000003,0.0736
E09000004,0.3734
E09000005,0.3616
E09000006,0.0114
E09000007,0.4995
E09000008,0.1626
E09000009,0.0524
E09000010,0.1082
E09000011,0.0131
E09000012,0.1135
E09000013,0.0976
E09000014,0.017
E09000015,0.0608
E09000016,0.2784
E09000017,0.1932
E09000018,0.0939
E09000019,0.1215
E09000020,0.6683
E09000021,0.2051
E09000022,0.0441
E09000023,0.2013
E09000024,0.1933
E09000025,0.2207
E09000026,0.1275
E09000027,0.3071
E09000028,0.1961
E09000029,0.2917
E09000030,0.0023
E09000031,0.0365
E09000032,0.1171
