lad19cd,ex_prob
E06000001,0.7968
E06000002,0.5232
E06000003,0.9118
E06000004,0.218
E06000005,0.9544
E06000006,0.4047
E06000007,0.4837
E06000008,0.4697
E06000009,0.8646
E06000010,0.6172
E06000011,0.6134
E06000012,0.017
E06000013,0.6168
E06000014,0.201
E06000015,0.2561
E06000016,0.6698
E06000017,0.5764
E06000018,0.268
E06000019,0.0971
E06000020,0.4288
E06000021,0.1016
E06000022,0.4186
E06000023,0.2187
E06000024,0.3011
E06000025,0.631
E06000026,0.0371
E06000027,0.1535
E06000030,0.1173
E06000031,0.8299
E06000032,0.6614
E06000033,0.9665
E06000034,0.9178
E06000035,0.488
E06000036,0.3688
E06000037,0.3852
E06000038,0.1713
E06000039,0.6167
E06000040,0.2743
E06000041,0.0247
E06000042,0.4706
E06000043,0.2633
E06000044,0.604
E06000045,0.0342
E06000046,0.0088
E06000047,0.6291
E06000049,0.5403
E06000050,0.6983
E06000051,0.4399
"E06000052,E06000053",5e-4
E06000054,0.0514
E06000055,0.5012
E06000056,0.7199
E06000057,0.1435
E06000058,0.1245
E06000059,0.1554
E07000004,0.1483
E07000005,0.8413
E07000006,0.4119
E07000007,0.6529
E07000008,0.2346
E07000009,0.4901
E07000010,0.7607
E07000011,0.0996
E07000012,0.3521
E07000026,0.1423
E07000027,0.7581
E07000028,0.2576
E07000029,0.0812
E07000030,0.6959
E07000031,0.4809
E07000032,0.5432
E07000033,0.9039
E07000034,0.1367
E07000035,0.3101
E07000036,0.642
E07000037,0.955
E07000038,0.0328
E07000039,0.9219
E07000040,0.4248
E07000041,0.6564
E07000042,0.8449
E07000043,0.7348
E07000044,0.046
E07000045,0.3526
E07000046,0.2112
E07000047,0.6991
E07000061,0.158
E07000062,0.7861
E07000063,0.7425
E07000064,0.9109
E07000065,0.4328
E07000066,0.6592
E07000067,0.6889
E07000068,0.2452
E07000069,0.7346
E07000070,0.874
E07000071,0.067
E07000072,0.3443
E07000073,0.6553
E07000074,0.2069
E07000075,0.9687
E07000076,0.3783
E07000077,0.3659
E07000078,0.7005
E07000079,0.1836
E07000080,0.7646
E07000081,0.9379
E07000082,0.5219
E07000083,0.6421
E07000084,0.0484
E07000085,0.4013
E07000086,0.0703
E07000087,0.7417
E07000088,0.9293
E07000089,0.5048
E07000090,0.4727
E07000091,0.0743
E07000092,0.7908
E07000093,0.0521
E07000094,0.0517
E07000095,0.2137
E07000096,0.4243
E07000098,0.8453
E07000099,0.1272
E07000102,0.4374
E07000103,0.966
E07000105,0.9696
E07000106,0.322
E07000107,0.5403
E07000108,0.9317
E07000109,0.4216
E07000110,0.6413
E07000111,0.7213
E07000112,0.818
E07000113,0.8896
E07000114,0.3825
E07000115,0.5357
E07000116,0.9205
E07000117,0.4556
E07000118,0.9846
E07000119,0.7574
E07000120,0.0419
E07000121,0.2319
E07000122,0.4557
E07000123,0.935
E07000124,0.8787
E07000125,0.2037
E07000126,0.5631
E07000127,0.1475
E07000128,0.7302
E07000129,0.5474
E07000130,0.2963
E07000131,0.9145
E07000132,0.54
E07000133,0.9964
E07000134,0.8937
E07000135,0.8289
E07000136,0.013
E07000137,0.3735
E07000138,0.9609
E07000139,0.2569
E07000140,0.1418
E07000141,0.685
E07000142,0.4814
E07000143,0.1916
E07000144,0.4326
E07000145,0.5365
E07000146,0.8969
E07000147,0.7075
E07000148,0.0114
E07000149,0.4822
E07000150,0.5197
E07000151,0.2642
E07000152,0.9532
E07000153,0.3367
E07000154,0.3565
E07000155,0.2558
E07000156,0.3956
E07000163,0.3071
E07000164,0.0605
E07000165,0.0982
E07000166,0.0393
E07000167,0.2753
E07000168,0.2673
E07000169,0.0133
E07000170,0.2406
E07000171,0.0075
E07000172,0.1169
E07000173,0.3869
E07000174,0.9325
E07000175,0.5057
E07000176,0.0332
E07000177,0.094
E07000178,0.6164
E07000179,0.3472
E07000180,0.1672
E07000181,0.3123
E07000187,0.5679
E07000188,0.3136
E07000189,0.6824
E07000192,0.8998
E07000193,0.932
E07000194,0.3635
E07000195,0.4386
E07000196,0.4247
E07000197,0.9979
E07000198,0.6688
E07000199,0.688
E07000200,0.2982
E07000202,0.9838
E07000203,0.4872
E07000207,0.30620000000000003
E07000208,0.2255
E07000209,0.227
E07000210,0.1858
E07000211,0.3145
E07000212,0.2695
E07000213,0.4628
E07000214,0.8745
E07000215,0.18
E07000216,0.113
E07000217,0.4692
E07000218,0.0652
E07000219,0.1533
E07000220,0.492
E07000221,0.8904
E07000222,0.5856
E07000223,0.084
E07000224,0.1975
E07000225,0.0754
E07000226,0.0991
E07000227,0.0813
E07000228,0.5004
E07000229,0.259
E07000234,0.0688
E07000235,0.4569
E07000236,0.5484
E07000237,0.3203
E07000238,0.3646
E07000239,0.046
E07000240,0.4833
E07000241,0.2017
E07000242,0.1799
E07000243,0.1853
E07000244,0.655
E07000245,0.4722
E07000246,0.6603
E08000001,0.6949
E08000002,0.3422
E08000003,0.4672
E08000004,0.4086
E08000005,0.3317
E08000006,0.1953
E08000007,0.2214
E08000008,0.0732
E08000009,0.1414
E08000010,0.7084
E08000011,0.5508
E08000012,0.3895
E08000013,0.3923
E08000014,0.0719
E08000015,0.3093
E08000016,0.4366
E08000017,0.6865
E08000018,0.2415
E08000019,0.3326
E08000021,0.1235
E08000022,0.2653
E08000023,0.9982
E08000024,0.5708
E08000025,0.2881
E08000026,0.7805
E08000027,0.7555
E08000028,0.3333
E08000029,0.5605
E08000030,0.4722
E08000031,0.1798
E08000032,0.2704
E08000033,0.096
E08000034,0.0805
E08000035,0.3267
E08000036,0.2871
E08000037,0.178
"E09000001,E09000033",0.0786
E09000002,0.644
E09000003,0.4301
E09000004,0.4935
E09000005,0.3089
E09000006,0.3637
E09000007,0.5077
E09000008,0.1384
E09000009,0.1289
E09000010,0.8627
E09000011,0.7227
E09000012,0.2631
E09000013,0.5548
E09000014,0.6106
E09000015,0.1418
E09000016,0.8494
E09000017,0.6844
E09000018,0.6176
E09000019,0.7879
E09000020,0.7013
E09000021,0.5354
E09000022,0.8217
E09000023,0.6213
E09000024,0.804
E09000025,0.7527
E09000026,0.6509
E09000027,0.4752
E09000028,0.4738
E09000029,0.4881
E09000030,0.4211
E09000031,0.7261
E09000032,0.7286
