lad19cd,ex_prob
E06000001,0.141
E06000002,0.3211
E06000003,0.0028
E06000004,0.0171
E06000005,0.0768
E06000006,0.577
E06000007,0.0082
E06000008,0.0434
E06000009,0.8299
E06000010,0.5283
E06000011,0.4841
E06000012,0.1442
E06000013,0.248
E06000014,0.4557
E06000015,0.4646
E06000016,0.4005
E06000017,0.074
E06000018,0.0863
E06000019,0.7641
E06000020,0.0204
E06000021,0.073
E06000022,0.39
E06000023,0.2339
E06000024,0.7352
E06000025,0.4318
E06000026,1
E06000027,0.0527
E06000030,0.4995
E06000031,0.1382
E06000032,0.6408
E06000033,0.4454
E06000034,0.6223
E06000035,0.6901
E06000036,0.7543
E06000037,0.4461
E06000038,0.8104
E06000039,0.9731
E06000040,0.8309
E06000041,0.7362
E06000042,0.8363
E06000043,0.0286
E06000044,0.5698
E06000045,0.5471
E06000046,0.6523
E06000047,0.2065
E06000049,0.3079
E06000050,0.5206
E06000051,0.0642
"E06000052,E06000053",0.0159
E06000054,0.0329
E06000055,0.9156
E06000056,0.72
E06000057,0.3383
E06000058,0.0355
E06000059,0.0346
E07000004,0.6872
E07000005,0.1841
E07000006,0.6123
E07000007,0.4347
E07000008,0.2981
E07000009,0.2091
E07000010,0.1724
E07000011,0.7202
E07000012,0.1636
E07000026,0.8888
E07000027,0.1253
E07000028,0.7719
E07000029,0.2562
E07000030,0.5597
E07000031,0.0774
E07000032,0.6279
E07000033,0.3839
E07000034,0.2561
E07000035,0.1785
E07000036,0.5285
E07000037,0.4628
E07000038,0.0354
E07000039,0.6441
E07000040,0.2309
E07000041,0.3379
E07000042,0.0646
E07000043,0.5385
E07000044,0.3449
E07000045,0.9562
E07000046,0.0272
E07000047,0.9799
E07000061,0.6692
E07000062,0.8085
E07000063,0.4277
E07000064,0.4105
E07000065,0.2676
E07000066,0.8986
E07000067,0.9612
E07000068,0.5045
E07000069,0.4384
E07000070,0.6806
E07000071,0.3559
E07000072,0.7133
E07000073,0.1119
E07000074,0.2077
E07000075,0.2462
E07000076,0.8539
E07000077,0.169
E07000078,0.3718
E07000079,0.2205
E07000080,0.8534
E07000081,0.806
E07000082,0.4183
E07000083,0.5786
E07000084,0.7119
E07000085,0.5194
E07000086,0.3849
E07000087,0.8155
E07000088,0.3886
E07000089,0.4637
E07000090,0.9375
E07000091,0.3626
E07000092,0.8826
E07000093,0.2444
E07000094,0.0725
E07000095,0.92
E07000096,0.5943
E07000098,0.893
E07000099,0.7429
E07000102,0.9048
E07000103,0.9391
E07000105,0.4884
E07000106,0.4442
E07000107,0.4431
E07000108,0.8031
E07000109,0.6836
E07000110,0.5088
E07000111,0.6237
E07000112,0.7156
E07000113,0.4451
E07000114,0.8435
E07000115,0.3747
E07000116,0.5392
E07000117,0.3198
E07000118,0.2288
E07000119,0.6922
E07000120,0.2007
E07000121,0.2974
E07000122,0.5352
E07000123,0.1517
E07000124,0.3693
E07000125,0.316
E07000126,0.0496
E07000127,0.2875
E07000128,0.8322
E07000129,0.0727
E07000130,0.4174
E07000131,0.055
E07000132,0.3796
E07000133,0.0282
E07000134,0.381
E07000135,0.5866
E07000136,0.2085
E07000137,0.1891
E07000138,0.1798
E07000139,0.4632
E07000140,0.669
E07000141,0.2555
E07000142,0.4107
E07000143,0.7902
E07000144,0.3271
E07000145,0.2302
E07000146,0.2001
E07000147,0.6048
E07000148,0.2488
E07000149,0.3495
E07000150,0.1101
E07000151,0.2616
E07000152,0.581
E07000153,0.1011
E07000154,0.281
E07000155,0.4888
E07000156,0.3133
E07000163,0.0175
E07000164,0.6214
E07000165,0.1263
E07000166,0.139
E07000167,0.4862
E07000168,0.2401
E07000169,0.247
E07000170,0.3021
E07000171,0.1037
E07000172,0.026
E07000173,0.0656
E07000174,0.5233
E07000175,0.0763
E07000176,0.3192
E07000177,0.2809
E07000178,0.6111
E07000179,0.2933
E07000180,0.5204
E07000181,0.2575
E07000187,0.0528
E07000188,0.1974
E07000189,0.1319
E07000192,0.3069
E07000193,0.5637
E07000194,0.4345
E07000195,0.2061
E07000196,0.3164
E07000197,0.6024
E07000198,0.0218
E07000199,0.3482
E07000200,0.3484
E07000202,0.6197
E07000203,0.1598
E07000207,0.9668
E07000208,0.5304
E07000209,0.6253
E07000210,0.6902
E07000211,0.0451
E07000212,0.9411
E07000213,0.8293
E07000214,0.5315
E07000215,0.4141
E07000216,0.1371
E07000217,0.1407
E07000218,0.0162
E07000219,0.038
E07000220,0.0035
E07000221,0.3333
E07000222,0.514
E07000223,0.7446
E07000224,0.5183
E07000225,0.0662
E07000226,0.3316
E07000227,0.351
E07000228,0.0695
E07000229,0.8372
E07000234,0.6465
E07000235,0.19
E07000236,0.0455
E07000237,0.4021
E07000238,0.9908
E07000239,0.3463
E07000240,0.5239
E07000241,0.4014
E07000242,0.6048
E07000243,0.8272
E07000244,0.339
E07000245,0.792
E07000246,0.3832
E08000001,0.408
E08000002,0.0021
E08000003,0.024
E08000004,0.0286
E08000005,0.3238
E08000006,0.1842
E08000007,0.2301
E08000008,0.0032
E08000009,0.0404
E08000010,0.5581
E08000011,0.1572
E08000012,0.1241
E08000013,0.6797
E08000014,0.2767
E08000015,0.2744
E08000016,0.6727
E08000017,0.5774
E08000018,0.0834
E08000019,0.235
E08000021,0.1602
E08000022,0.3765
E08000023,7e-4
E08000024,0.0183
E08000025,0.3524
E08000026,0.1553
E08000027,0.1541
E08000028,0.5054
E08000029,0.5707
E08000030,0.3721
E08000031,0.4035
E08000032,0.0062
E08000033,0.2856
E08000034,0.2928
E08000035,0.159
E08000036,0.1975
E08000037,0.1777
"E09000001,E09000033",0.095
E09000002,0.8342
E09000003,0.8957
E09000004,0.5274
E09000005,0.7597
E09000006,0.7898
E09000007,0.2498
E09000008,0.834
E09000009,0.7756
E09000010,0.6955
E09000011,0.7254
E09000012,0.8137
E09000013,0.5619
E09000014,0.9453
E09000015,0.7313
E09000016,0.6736
E09000017,0.7113
E09000018,0.7701
E09000019,0.6965
E09000020,0.3165
E09000021,0.6017
E09000022,0.924
E09000023,0.8642
E09000024,0.607
E09000025,0.9734
E09000026,0.634
E09000027,0.654
E09000028,0.8977
E09000029,0.5056
E09000030,0.5682
E09000031,0.834
E09000032,0.6425
