"name","given","fullpath","mtime","md5"
"cases","/data/covid19/PHE/PHE_2020-11-06/Anonymised Combined Line List 20201106.csv","/data/covid19/PHE/PHE_2020-11-06/Anonymised Combined Line List 20201106.csv",2020-11-06 17:00:08,"4c59fd2a71db1d131fb6d283f949db9e"
"flows","/app/Data/Unrestricted/processed/mergedflows.rds","/app/Data/Unrestricted/processed/mergedflows.rds",2020-06-15 14:28:56,"2f34b018ac0995f8e9461f062a068004"
"traffic","/data/covid19/Dft/2020-10-30/201030_OFF_SEN_COVID19_road_traffic_national_table.xlsx","/data/covid19/Dft/2020-10-30/201030_OFF_SEN_COVID19_road_traffic_national_table.xlsx",2020-11-02 19:16:38,"fde6469033eb0fcbce7b4266baccaed8"
"areas","/app/Data/Unrestricted/original/geodata/UK2019mod_pop.gpkg","/app/Data/Unrestricted/original/geodata/UK2019mod_pop.gpkg",2020-06-22 08:51:34,"cf99fa0284c96852e73f588f6bb89110"
