lad19cd,ex_prob
E06000001,0.214
E06000002,0.1402
E06000003,0.7782
E06000004,0.9018
E06000005,0.8716
E06000006,0.9865
E06000007,0.8161
E06000008,0.7255
E06000009,0.2003
E06000010,0.7014
E06000011,0.8269
E06000012,0.2514
E06000013,0.7511
E06000014,0.7505
E06000015,0.9142
E06000016,0.6719
E06000017,0.9028
E06000018,0.9702
E06000019,0.9813
E06000020,0.1833
E06000021,0.7403
E06000022,0.7381
E06000023,0.8702
E06000024,0.5974
E06000025,0.1739
E06000026,0.0027
E06000027,0.5264
E06000030,0.9633
E06000031,0.9402
E06000032,0.9977
E06000033,0.255
E06000034,0.8044
E06000035,0.8253
E06000036,0.6463
E06000037,0.8475
E06000038,0.413
E06000039,0.9985
E06000040,0.6577
E06000041,0.7964
E06000042,0.0656
E06000043,0.8068
E06000044,0.4587
E06000045,0.4718
E06000046,0.2502
E06000047,0.5374
E06000049,0.2127
E06000050,0.9162
E06000051,0.75
"E06000052,E06000053",0.2951
E06000054,0.6982
E06000055,0.8617
E06000056,0.6466
E06000057,0.8901
E06000058,0.7816
E06000059,0.1272
E07000004,0.2886
E07000005,0.3071
E07000006,0.4713
E07000007,0.6143
E07000008,0.6561
E07000009,0.6994
E07000010,0.1659
E07000011,0.2975
E07000012,0.1819
E07000026,0.3345
E07000027,0.9269
E07000028,0.2471
E07000029,0.2905
E07000030,0.3481
E07000031,0.677
E07000032,0.0659
E07000033,0.7333
E07000034,0.5239
E07000035,1
E07000036,0.5685
E07000037,0.0845
E07000038,0.109
E07000039,0.6769
E07000040,0.1979
E07000041,0.1461
E07000042,0.4284
E07000043,0
E07000044,0.3346
E07000045,0.1957
E07000046,0
E07000047,0.4551
E07000061,0.4025
E07000062,0.3962
E07000063,0.2533
E07000064,0
E07000065,0.1614
E07000066,0.0559
E07000067,0.4425
E07000068,0.4552
E07000069,0.284
E07000070,0.6092
E07000071,0.3196
E07000072,0.8814
E07000073,0.7887
E07000074,0.4398
E07000075,0.705
E07000076,0.8795
E07000077,0.2482
E07000078,0.2289
E07000079,0.2214
E07000080,0.8195
E07000081,0.3505
E07000082,0.0993
E07000083,0
E07000084,0.8435
E07000085,0
E07000086,0.0666
E07000087,0.0204
E07000088,0.5352
E07000089,0.3499
E07000090,0.7632
E07000091,0.3479
E07000092,0.367
E07000093,0.3964
E07000094,0.4884
E07000095,0
E07000096,0.8453
E07000098,0.7324
E07000099,0.7564
E07000102,0.9539
E07000103,0.8247
E07000105,0.7822
E07000106,0.4763
E07000107,0.1966
E07000108,0.9386
E07000109,0.252
E07000110,0.494
E07000111,0.4393
E07000112,0.4562
E07000113,0.6113
E07000114,0.9175
E07000115,0.6237
E07000116,0
E07000117,0.7685
E07000118,0.8695
E07000119,0.4196
E07000120,0.195
E07000121,0.4601
E07000122,0.6846
E07000123,0.7929
E07000124,0.6181
E07000125,0.9676
E07000126,0.5877
E07000127,0.601
E07000128,0.7598
E07000129,0.4742
E07000130,0.4622
E07000131,0.9108
E07000132,0.514
E07000133,0
E07000134,0.6738
E07000135,0
E07000136,0.4847
E07000137,0.8778
E07000138,0.7688
E07000139,0.6814
E07000140,0.9642
E07000141,0.8873
E07000142,0.5116
E07000143,0.9999
E07000144,0.4325
E07000145,0
E07000146,0.1467
E07000147,0
E07000148,0.2061
E07000149,0.5562
E07000150,0.9391
E07000151,0.5102
E07000152,0.2411
E07000153,0.5743
E07000154,0.8085
E07000155,0.9223
E07000156,0.7499
E07000163,0.6006
E07000164,0.2206
E07000165,0.6987
E07000166,0.911
E07000167,0
E07000168,0.3677
E07000169,0
E07000170,0.1072
E07000171,0.9959
E07000172,0.6334
E07000173,0.6669
E07000174,0.9708
E07000175,0.8279
E07000176,3e-4
E07000177,0.7047
E07000178,0.3543
E07000179,0.8657
E07000180,0.1379
E07000181,0.6668
E07000187,0
E07000188,0.858
E07000189,0.5409
E07000192,0.796
E07000193,0.7361
E07000194,0.749
E07000195,0.2865
E07000196,0.5223
E07000197,0.1702
E07000198,0.6286
E07000199,0.3766
E07000200,0.196
E07000202,0.7599
E07000203,0.2492
E07000207,0.3008
E07000208,0.5888
E07000209,0.1219
E07000210,0.1945
E07000211,0.6241
E07000212,0.979
E07000213,0.8065
E07000214,0.4246
E07000215,0.4968
E07000216,0.8499
E07000217,0.6472
E07000218,0.7945
E07000219,0.9934
E07000220,0.6369
E07000221,0.2467
E07000222,0.822
E07000223,0.2697
E07000224,0.724
E07000225,0.328
E07000226,0.2691
E07000227,0.1772
E07000228,0.8184
E07000229,0.8719
E07000234,0.0287
E07000235,0.4661
E07000236,0.8154
E07000237,0.9834
E07000238,0.3527
E07000239,0.6594
E07000240,0.7572
E07000241,0.4369
E07000242,0.1133
E07000243,0.5842
E07000244,0.0473
E07000245,0.0887
E07000246,0.5315
E08000001,0.827
E08000002,0.1308
E08000003,0.8125
E08000004,0.9133
E08000005,0.4649
E08000006,0.8478
E08000007,0.5533
E08000008,0.6065
E08000009,0.5176
E08000010,0.0933
E08000011,0.6226
E08000012,0.6711
E08000013,0.6735
E08000014,0.651
E08000015,0.3122
E08000016,0.9147
E08000017,0.8125
E08000018,0.4224
E08000019,0.9366
E08000021,0.3474
E08000022,0.6279
E08000023,0.8343
E08000024,0.6609
E08000025,0.6383
E08000026,0.9303
E08000027,0.5068
E08000028,0.6753
E08000029,0.2313
E08000030,0.531
E08000031,0.8869
E08000032,0.9629
E08000033,0.6961
E08000034,0.787
E08000035,0.9395
E08000036,0.9341
E08000037,0.6905
"E09000001,E09000033",0.9378
E09000002,0.9449
E09000003,0.1878
E09000004,0.5443
E09000005,0.9616
E09000006,0.7266
E09000007,0.5905
E09000008,0.2196
E09000009,0.8681
E09000010,0.5955
E09000011,0.7275
E09000012,0.668
E09000013,0.8354
E09000014,0.4514
E09000015,0.8997
E09000016,0.515
E09000017,0.9144
E09000018,0.8643
E09000019,0.2834
E09000020,0.9777
E09000021,0.4211
E09000022,0.6858
E09000023,0.8711
E09000024,0.8332
E09000025,0.8386
E09000026,0.7875
E09000027,0.815
E09000028,0.6177
E09000029,0.0835
E09000030,0.6712
E09000031,0.8794
E09000032,0.977
