lad19cd,ex_prob
E06000001,0.5762
E06000002,0.8142
E06000003,0.4439
E06000004,0.2846
E06000005,0.781
E06000006,0.1207
E06000007,0.0727
E06000008,0.1028
E06000009,0.1838
E06000010,0.6202
E06000011,0.5028
E06000012,0.0656
E06000013,0.1418
E06000014,0.0612
E06000015,0.3728
E06000016,0.2206
E06000017,0.161
E06000018,0.1626
E06000019,0.8015
E06000020,0.0736
E06000021,0.5478
E06000022,0.1263
E06000023,0.2915
E06000024,0.0893
E06000025,0.0707
E06000026,0.0445
E06000027,0.2282
E06000030,0.0439
E06000031,0.2657
E06000032,0.7044
E06000033,0.0462
E06000034,0.3077
E06000035,0.2564
E06000036,0.0051
E06000037,0.064
E06000038,0.0353
E06000039,0.6353
E06000040,0.1872
E06000041,0.0205
E06000042,0.3734
E06000043,0.0317
E06000044,0.3632
E06000045,0.1082
E06000046,0.0709
E06000047,0.6195
E06000049,0.4694
E06000050,0.1245
E06000051,0.3554
"E06000052,E06000053",0.3609
E06000054,0.5962
E06000055,0.5263
E06000056,0.2129
E06000057,0.3312
E06000058,0.3242
E06000059,0.1204
E07000004,0.0337
E07000005,0.2712
E07000006,0.1096
E07000007,0.1073
E07000008,0.058
E07000009,0.1497
E07000010,0.0023
E07000011,0.1265
E07000012,0.0595
E07000026,0.1015
E07000027,0.6906
E07000028,0.0469
E07000029,0.8697
E07000030,0.7001
E07000031,0.2295
E07000032,0.1025
E07000033,0.2846
E07000034,0.0473
E07000035,0.4147
E07000036,0.4361
E07000037,0.451
E07000038,0.4308
E07000039,0.0738
E07000040,0.442
E07000041,0.9972
E07000042,0.0154
E07000043,0.1426
E07000044,0.0256
E07000045,0.426
E07000046,0.2042
E07000047,0.0032
E07000061,0.1882
E07000062,0.4101
E07000063,0.0014
E07000064,0.1046
E07000065,0.0543
E07000066,0.1968
E07000067,0.5055
E07000068,0.6126
E07000069,0.5708
E07000070,0.6164
E07000071,0.1069
E07000072,0.4056
E07000073,0.2757
E07000074,0.3818
E07000075,0.221
E07000076,0.6665
E07000077,0.1803
E07000078,0.1188
E07000079,0.0988
E07000080,0.2172
E07000081,0.2023
E07000082,0.1623
E07000083,0.1128
E07000084,0.4738
E07000085,0.1006
E07000086,0.0477
E07000087,0.1374
E07000088,0.0608
E07000089,9e-4
E07000090,0.5125
E07000091,0.6893
E07000092,0.1843
E07000093,0.1749
E07000094,0.0542
E07000095,0.1906
E07000096,0.2467
E07000098,0.1714
E07000099,0.1355
E07000102,0.1441
E07000103,0.4297
E07000105,0.0331
E07000106,0.5883
E07000107,0.0329
E07000108,0.7599
E07000109,0.7258
E07000110,0.049
E07000111,0.1949
E07000112,0.9699
E07000113,0.6568
E07000114,0.0578
E07000115,0.181
E07000116,0.0268
E07000117,0.0502
E07000118,0.2606
E07000119,0.2088
E07000120,0.108
E07000121,0.2582
E07000122,0.5776
E07000123,0.2479
E07000124,0.0217
E07000125,0.29
E07000126,0.3539
E07000127,0.1174
E07000128,0.7257
E07000129,0.46
E07000130,0.2151
E07000131,0.2661
E07000132,0.9202
E07000133,0.061
E07000134,0.1324
E07000135,0.0886
E07000136,0.6563
E07000137,0.3254
E07000138,0.9515
E07000139,0.8104
E07000140,0.2713
E07000141,0.0432
E07000142,0.3471
E07000143,0.8902
E07000144,0.0763
E07000145,0.124
E07000146,0.0516
E07000147,0.1341
E07000148,0.0064
E07000149,0.3747
E07000150,0.2895
E07000151,0.5793
E07000152,0.207
E07000153,0.2983
E07000154,0.2854
E07000155,0.3802
E07000156,0.0938
E07000163,0.0993
E07000164,0.1697
E07000165,0.6909
E07000166,0.3763
E07000167,0.0314
E07000168,0.0799
E07000169,0.0448
E07000170,0.6802
E07000171,0.0911
E07000172,0.3856
E07000173,0.5526
E07000174,0.6705
E07000175,0.693
E07000176,0.9952
E07000177,0.0584
E07000178,0.3327
E07000179,0.0821
E07000180,0.0226
E07000181,0.0418
E07000187,0.0642
E07000188,0.2414
E07000189,0.3592
E07000192,0.0638
E07000193,0.7599
E07000194,0.7666
E07000195,0.1569
E07000196,0.2106
E07000197,0.1265
E07000198,0.1209
E07000199,0.5116
E07000200,0.0046
E07000202,0.1233
E07000203,0.0035
E07000207,0.168
E07000208,0.3852
E07000209,0.2346
E07000210,0.8009
E07000211,0.1405
E07000212,0.0035
E07000213,0.2493
E07000214,0.2794
E07000215,0.0299
E07000216,0.0286
E07000217,0.3016
E07000218,0.3691
E07000219,0.0472
E07000220,0.3266
E07000221,0.3731
E07000222,0.5413
E07000223,0.0183
E07000224,0.7804
E07000225,0.4768
E07000226,0.0279
E07000227,0.2509
E07000228,0.4882
E07000229,0.1873
E07000234,0.2462
E07000235,0.4374
E07000236,0.5824
E07000237,0.4625
E07000238,0.4293
E07000239,0.1477
E07000240,0.6234
E07000241,0.2557
E07000242,0.2138
E07000243,0.5167
E07000244,0.1001
E07000245,0.005
E07000246,0.0658
E08000001,0.4003
E08000002,0.5929
E08000003,0.0876
E08000004,0.1777
E08000005,0.4094
E08000006,0.067
E08000007,0.4658
E08000008,0.148
E08000009,0.0516
E08000010,0.1124
E08000011,0.4088
E08000012,0.3844
E08000013,0.337
E08000014,0.427
E08000015,0.0248
E08000016,0.7003
E08000017,0.399
E08000018,0.8087
E08000019,0.1997
E08000021,0.2802
E08000022,0.1691
E08000023,0.5592
E08000024,0.1785
E08000025,0.1777
E08000026,0.2552
E08000027,0.6149
E08000028,0.5851
E08000029,0.1011
E08000030,0.2952
E08000031,0.0809
E08000032,0.0362
E08000033,0.244
E08000034,0.2201
E08000035,0.0245
E08000036,0.7518
E08000037,0.2183
"E09000001,E09000033",0.0053
E09000002,0.2845
E09000003,0.0193
E09000004,0.3002
E09000005,0.0298
E09000006,0.0513
E09000007,0.1212
E09000008,0.3583
E09000009,0.1081
E09000010,0.0254
E09000011,0.0254
E09000012,0.2029
E09000013,0.0143
E09000014,0.1822
E09000015,0.0524
E09000016,0.0927
E09000017,0.43120000000000003
E09000018,0.4755
E09000019,0.0965
E09000020,0.0222
E09000021,0.1333
E09000022,0.3179
E09000023,0.0891
E09000024,0.102
E09000025,0.0585
E09000026,0.1372
E09000027,0.059
E09000028,0.0075
E09000029,0.0565
E09000030,0.0417
E09000031,0.1302
E09000032,0.0124
