lad19cd,ex_prob
E06000001,0.9806
E06000002,0.9754
E06000003,0.9861
E06000004,0.9532
E06000005,0.8029
E06000006,0.9397
E06000007,0.9401
E06000008,0.9861
E06000009,0.9403
E06000010,0.5217
E06000011,0.6718
E06000012,0.9914
E06000013,0.9834
E06000014,0.9793
E06000015,0.7265
E06000016,0.7529
E06000017,0.9903
E06000018,0.999
E06000019,0.7992
E06000020,0.6931
E06000021,0.8066
E06000022,0.9388
E06000023,0.9103
E06000024,0.7945
E06000025,0.5317
E06000026,0.6097
E06000027,0.6281
E06000030,0.7263
E06000031,0.7761
E06000032,0.853
E06000033,0.5
E06000034,0.6452
E06000035,0.702
E06000036,0.8282
E06000037,0.5897
E06000038,0.7561
E06000039,0.8263
E06000040,0.9364
E06000041,0.6828
E06000042,0.5894
E06000043,0.8538
E06000044,0.9254
E06000045,0.6125
E06000046,0.2892
E06000047,0.9039
E06000049,0.6618
E06000050,0.7727
E06000051,0.674
"E06000052,E06000053",0.2545
E06000054,0.3814
E06000055,0.8934
E06000056,0.5211
E06000057,0.7712
E06000058,0.9551
E06000059,0.5069
E07000004,0.9211
E07000005,0.9873
E07000006,0.7919
E07000007,0.9005
E07000008,0.7294
E07000009,0.8859
E07000010,0.5149
E07000011,0.5826
E07000012,0.7362
E07000026,0.6689
E07000027,0.9928
E07000028,0.8947
E07000029,0.7453
E07000030,0.303
E07000031,0.941
E07000032,0.7139
E07000033,0.9532
E07000034,0.9134
E07000035,0.8242
E07000036,0.7886
E07000037,0.9556
E07000038,0.9198
E07000039,0.7979
E07000040,0.5959
E07000041,0.974
E07000042,0.3987
E07000043,0.7991
E07000044,0.1176
E07000045,0.6625
E07000046,0.1815
E07000047,0.4909
E07000061,0.2093
E07000062,0.796
E07000063,0.4725
E07000064,0.6102
E07000065,0.8097
E07000066,0.6319
E07000067,0.6998
E07000068,0.8332
E07000069,0.8584
E07000070,0.8172
E07000071,0.8254
E07000072,0.8237
E07000073,0.6662
E07000074,0.9344
E07000075,0.696
E07000076,0.9989
E07000077,0.8461
E07000078,0.8684
E07000079,0.8326
E07000080,0.8305
E07000081,0.883
E07000082,0.7978
E07000083,0.6545
E07000084,0.6413
E07000085,0.9376
E07000086,0.7268
E07000087,0.3564
E07000088,0.3642
E07000089,0.8768
E07000090,0.7686
E07000091,0.5392
E07000092,0.9002
E07000093,0.982
E07000094,0.705
E07000095,0.9396
E07000096,0.6467
E07000098,0.9315
E07000099,0.9566
E07000102,0.9618
E07000103,0.8585
E07000105,0.6483
E07000106,0.5722
E07000107,0.3645
E07000108,0.8174
E07000109,0.9858
E07000110,0.8649
E07000111,0.9614
E07000112,0.316
E07000113,0.8648
E07000114,0.5105
E07000115,0.9691
E07000116,0.8869
E07000117,0.9824
E07000118,0.9865
E07000119,0.8961
E07000120,0.9646
E07000121,0.9927
E07000122,0.9692
E07000123,0.8968
E07000124,0.937
E07000125,0.9843
E07000126,0.9732
E07000127,0.9899
E07000128,0.9456
E07000129,0.7639
E07000130,0.9709
E07000131,0.9483
E07000132,0.9451
E07000133,0.9321
E07000134,0.9276
E07000135,0.92490000000000006
E07000136,0.8316
E07000137,0.91
E07000138,0.8224
E07000139,0.7655
E07000140,0.7002
E07000141,0.9926
E07000142,0.7916
E07000143,0.7338
E07000144,0.6662
E07000145,0.6911
E07000146,0.7623
E07000147,0.6779
E07000148,0.9662
E07000149,0.4606
E07000150,0.9736
E07000151,0.9169
E07000152,0.7788
E07000153,0.9337
E07000154,0.9427
E07000155,0.9366
E07000156,0.6801
E07000163,0.5713
E07000164,0.5582
E07000165,0.6597
E07000166,0.1796
E07000167,0.6878
E07000168,0.6176
E07000169,0.7311
E07000170,0.6565
E07000171,0.622
E07000172,0.9953
E07000173,0.975
E07000174,0.9399
E07000175,0.9942
E07000176,0.9877
E07000177,0.8293
E07000178,0.836
E07000179,0.9225
E07000180,0.551
E07000181,0.8294
E07000187,0.5873
E07000188,0.2865
E07000189,0.4345
E07000192,0.9176
E07000193,0.9133
E07000194,0.6717
E07000195,0.9442
E07000196,0.8867
E07000197,0.9039
E07000198,0.8829
E07000199,0.9035
E07000200,0.9405
E07000202,0.7366
E07000203,0.5935
E07000207,0.9938
E07000208,0.9673
E07000209,0.8113
E07000210,0.9413
E07000211,0.9029
E07000212,0.8008
E07000213,0.904
E07000214,0.9807
E07000215,0.6986
E07000216,0.9821
E07000217,0.9518
E07000218,0.3073
E07000219,0.5522
E07000220,0.9499
E07000221,0.8592
E07000222,0.7786
E07000223,0.2927
E07000224,0.0308
E07000225,0.5223
E07000226,0.5913
E07000227,0.8774
E07000228,0.6992
E07000229,0.4816
E07000234,0.76
E07000235,0.8631
E07000236,0.6072
E07000237,0.8394
E07000238,0.5629
E07000239,0.9585
E07000240,0.8738
E07000241,0.8625
E07000242,0.9184
E07000243,0.5842
E07000244,0.4642
E07000245,0.7911
E07000246,0.5206
E08000001,0.892
E08000002,0.8755
E08000003,0.3514
E08000004,0.9535
E08000005,0.9475
E08000006,0.8711
E08000007,0.7965
E08000008,0.9217
E08000009,0.8464
E08000010,0.9337
E08000011,0.9581
E08000012,0.762
E08000013,0.9276
E08000014,0.8803
E08000015,0.8022
E08000016,0.9615
E08000017,0.9714
E08000018,0.9478
E08000019,0.9085
E08000021,0.8932
E08000022,0.9055
E08000023,0.8527
E08000024,0.862
E08000025,0.2942
E08000026,0.8086
E08000027,0.4155
E08000028,0.4767
E08000029,0.6054
E08000030,0.8038
E08000031,0.7266
E08000032,0.6495
E08000033,0.9649
E08000034,0.8453
E08000035,0.6253
E08000036,0.7513
E08000037,0.7866
"E09000001,E09000033",0.0054
E09000002,0.6945
E09000003,0.7745
E09000004,0.8308
E09000005,0.696
E09000006,0.5946
E09000007,0.3778
E09000008,0.4402
E09000009,0.9382
E09000010,0.6216
E09000011,0.8373
E09000012,0.8851
E09000013,0.7261
E09000014,0.6605
E09000015,0.9503
E09000016,0.7584
E09000017,0.8518
E09000018,0.8262
E09000019,0.3324
E09000020,0.6609
E09000021,0.9632
E09000022,0.6045
E09000023,0.7271
E09000024,0.8412
E09000025,0.857
E09000026,0.7581
E09000027,0.9615
E09000028,0.4644
E09000029,0.8158
E09000030,0.603
E09000031,0.7606
E09000032,0.6596
