lad19cd,ex_prob
E06000001,0.808
E06000002,0.6923
E06000003,0.5682
E06000004,0.6955
E06000005,0.2587
E06000006,0.4593
E06000007,0.6348
E06000008,0.9649
E06000009,0.8898
E06000010,0.9154
E06000011,0.6891
E06000012,0.9094
E06000013,0.6464
E06000014,0.4621
E06000015,0.9382
E06000016,0.5044
E06000017,0.1277
E06000018,0.1198
E06000019,0.5509
E06000020,0.7643
E06000021,0.9133
E06000022,0.8064
E06000023,0.68
E06000024,0.5532
E06000025,0.6532
E06000026,0.5549
E06000027,0.7805
E06000030,0.4749
E06000031,0.6508
E06000032,0.4356
E06000033,0.2616
E06000034,0.7852
E06000035,0.2372
E06000036,0.1725
E06000037,0.2613
E06000038,0.2112
E06000039,0.4687
E06000040,0.2845
E06000041,0.2982
E06000042,0.424
E06000043,0.8024
E06000044,0.6425
E06000045,0.5211
E06000046,0.0099
E06000047,0.1855
E06000049,0.3973
E06000050,0.4753
E06000051,0.3863
"E06000052,E06000053",0.103
E06000054,0.1878
E06000055,0.2109
E06000056,0.2708
E06000057,0.1931
E06000058,0.7277
E06000059,0.3895
E07000004,0.5244
E07000005,0.6204
E07000006,0.6618
E07000007,0.4605
E07000008,0.5626
E07000009,0.0358
E07000010,0.4756
E07000011,0.0603
E07000012,0.0328
E07000026,0.2424
E07000027,0.7525
E07000028,0.784
E07000029,0.5572
E07000030,0.4065
E07000031,0.3082
E07000032,0.8626
E07000033,0.9363
E07000034,0.9342
E07000035,0.4735
E07000036,0.8444
E07000037,0.889
E07000038,0.8692
E07000039,0.983
E07000040,0.3562
E07000041,0.3297
E07000042,0.1588
E07000043,0.0229
E07000044,0.0012
E07000045,0.2504
E07000046,0.0223
E07000047,0.2736
E07000061,0.3075
E07000062,0.1012
E07000063,0.257
E07000064,0.0258
E07000065,0.2431
E07000066,0.66
E07000067,0.0274
E07000068,0.75
E07000069,0.8593
E07000070,0.6478
E07000071,0.1792
E07000072,0.6158
E07000073,0.2014
E07000074,0.3556
E07000075,0.3832
E07000076,0.389
E07000077,0.1883
E07000078,0.0603
E07000079,0.4366
E07000080,0.2486
E07000081,0.4412
E07000082,0.2327
E07000083,0.0443
E07000084,0.5412
E07000085,0.5129
E07000086,0.7696
E07000087,0.3694
E07000088,0.3536
E07000089,0.31
E07000090,0.1829
E07000091,0.2488
E07000092,0.5091
E07000093,0.3569
E07000094,0.307
E07000095,0.7701
E07000096,0.4967
E07000098,0.6201
E07000099,0.1174
E07000102,0.5197
E07000103,0.4577
E07000105,0.3695
E07000106,0.5482
E07000107,0.6549
E07000108,0.1321
E07000109,0.8927
E07000110,0.103
E07000111,0.2743
E07000112,0.4147
E07000113,0.6301
E07000114,0.8084
E07000115,0.015
E07000116,0.0347
E07000117,0.6826
E07000118,0.9039
E07000119,0.5705
E07000120,0.92
E07000121,0.7174
E07000122,0.9141
E07000123,0.6683
E07000124,0.7746
E07000125,0.9546
E07000126,0.7579
E07000127,0.8101
E07000128,0.8224
E07000129,0.4075
E07000130,0.9433
E07000131,0.5183
E07000132,0.7139
E07000133,0.4628
E07000134,0.2208
E07000135,0.5319
E07000136,0.4162
E07000137,0.7832
E07000138,0.5467
E07000139,0.6117
E07000140,0.9421
E07000141,0.5612
E07000142,0.8368
E07000143,0.7925
E07000144,0.3036
E07000145,0.449
E07000146,0.1436
E07000147,0.0122
E07000148,0.2222
E07000149,0.0889
E07000150,0.7899
E07000151,0.3327
E07000152,0.4541
E07000153,0.5728
E07000154,0.6851
E07000155,0.6149
E07000156,0.8561
E07000163,0.1058
E07000164,0.2137
E07000165,0.2277
E07000166,0.3279
E07000167,0.0085
E07000168,0.7889
E07000169,0.4324
E07000170,0.7102
E07000171,0.87
E07000172,0.7704
E07000173,0.702
E07000174,0.9588
E07000175,0.5555
E07000176,0.5164
E07000177,0.8357
E07000178,0.4401
E07000179,0.3849
E07000180,0.4074
E07000181,0.6088
E07000187,0.0109
E07000188,0.4104
E07000189,0.0404
E07000192,0.8848
E07000193,0.7003
E07000194,0.598
E07000195,0.9273
E07000196,0.9129
E07000197,0.7092
E07000198,0.7679
E07000199,0.5834
E07000200,0.2788
E07000202,0.6308
E07000203,0.0538
E07000207,0.3961
E07000208,0.7867
E07000209,0.6529
E07000210,0.4903
E07000211,0.1317
E07000212,0.2621
E07000213,0.3205
E07000214,0.3711
E07000215,0.3952
E07000216,0.5949
E07000217,0.357
E07000218,0.33
E07000219,0.7487
E07000220,0.4413
E07000221,0.2982
E07000222,0.5815
E07000223,0.0326
E07000224,0.3264
E07000225,0.3586
E07000226,0.4095
E07000227,0.1267
E07000228,0.2404
E07000229,0.4272
E07000234,0.4352
E07000235,0.5029
E07000236,0.3624
E07000237,0.8562
E07000238,0.5226
E07000239,0.7592
E07000240,0.2417
E07000241,0.2609
E07000242,0.2995
E07000243,0.2504
E07000244,0.2043
E07000245,0.5362
E07000246,0.3708
E08000001,0.7957
E08000002,0.8484
E08000003,0.3764
E08000004,0.9094
E08000005,0.8328
E08000006,0.7646
E08000007,0.7174
E08000008,0.8346
E08000009,0.5785
E08000010,0.8649
E08000011,0.4262
E08000012,0.2329
E08000013,0.7417
E08000014,0.5544
E08000015,0.5828
E08000016,0.8871
E08000017,0.9096
E08000018,0.7736
E08000019,0.4969
E08000021,0.2586
E08000022,0.5622
E08000023,0.5138
E08000024,0.5438
E08000025,0.1728
E08000026,0.3838
E08000027,0.7813
E08000028,0.5934
E08000029,0.3922
E08000030,0.8385
E08000031,0.6912
E08000032,0.61
E08000033,0.8881
E08000034,0.7003
E08000035,0.2599
E08000036,0.7454
E08000037,0.7396
"E09000001,E09000033",0
E09000002,0.6515
E09000003,0.3937
E09000004,0.5826
E09000005,0.3643
E09000006,0.362
E09000007,0.0398
E09000008,0.4234
E09000009,0.6181
E09000010,0.3964
E09000011,0.412
E09000012,0.4729
E09000013,0.6395
E09000014,0.4392
E09000015,0.606
E09000016,0.518
E09000017,0.4412
E09000018,0.6557
E09000019,0.2218
E09000020,0.1627
E09000021,0.7901
E09000022,0.361
E09000023,0.4524
E09000024,0.6304
E09000025,0.4469
E09000026,0.6598
E09000027,0.5137
E09000028,0.4023
E09000029,0.4905
E09000030,0.3389
E09000031,0.5933
E09000032,0.4995
