lad19cd,ex_prob
E06000001,0.0022
E06000002,0.7561
E06000003,0.2646
E06000004,0.0668
E06000005,0.5288
E06000006,0.1542
E06000007,0.7591
E06000008,0.1774
E06000009,0.508
E06000010,0.7776
E06000011,0.6365
E06000012,0.2365
E06000013,0.2634
E06000014,0.4336
E06000015,0.2039
E06000016,0.4234
E06000017,0.109
E06000018,0.2484
E06000019,0.9939
E06000020,0.3172
E06000021,0.1541
E06000022,0.399
E06000023,0.3834
E06000024,0.8902
E06000025,0.2445
E06000026,0.239
E06000027,0.1182
E06000030,0.2143
E06000031,0.826
E06000032,0.8473
E06000033,0.8353
E06000034,0.7842
E06000035,0.9184
E06000036,0.7876
E06000037,0.3636
E06000038,0.6412
E06000039,0.9933
E06000040,0.9676
E06000041,0.7305
E06000042,0.9428
E06000043,0.4359
E06000044,0.6995
E06000045,0.9562
E06000046,0.5291
E06000047,0.8423
E06000049,0.7408
E06000050,0.4552
E06000051,0.0202
"E06000052,E06000053",0.0021
E06000054,0.3979
E06000055,0.8526
E06000056,0.876
E06000057,0.2573
E06000058,0.5896
E06000059,0.1184
E07000004,0.7459
E07000005,0.6558
E07000006,0.9788
E07000007,0.5058
E07000008,0.7325
E07000009,0.3316
E07000010,0.3686
E07000011,0.4434
E07000012,0.6097
E07000026,0.9013
E07000027,0.0792
E07000028,0.9861
E07000029,0.4598
E07000030,0.9008
E07000031,0.6189
E07000032,0.3451
E07000033,0.3878
E07000034,0.4454
E07000035,0.5048
E07000036,0.3616
E07000037,0.5281
E07000038,0.199
E07000039,0.495
E07000040,0.34
E07000041,0.8573
E07000042,0.5506
E07000043,0.6862
E07000044,0.1773
E07000045,0.6841
E07000046,0.1467
E07000047,0.7439
E07000061,0.7831
E07000062,0.6814
E07000063,0.4302
E07000064,0.826
E07000065,0.6377
E07000066,0.8302
E07000067,0.9611
E07000068,0.8764
E07000069,0.4371
E07000070,0.851
E07000071,0.8057
E07000072,0.8248
E07000073,0.929
E07000074,0.3091
E07000075,0.4509
E07000076,0.6097
E07000077,0.307
E07000078,0.4209
E07000079,0.5576
E07000080,0.7344
E07000081,0.7123
E07000082,0.4818
E07000083,0.6619
E07000084,0.3272
E07000085,0.3638
E07000086,0.1373
E07000087,0.7821
E07000088,0.658
E07000089,0.5194
E07000090,0.9758
E07000091,0.7637
E07000092,0.9939
E07000093,0.1901
E07000094,0.086
E07000095,0.9393
E07000096,0.9107
E07000098,0.9947
E07000099,0.9235
E07000102,0.9885
E07000103,0.8922
E07000105,0.8495
E07000106,0.4198
E07000107,0.8864
E07000108,0.2385
E07000109,0.8535
E07000110,0.8731
E07000111,0.5661
E07000112,0.5152
E07000113,0.8139
E07000114,0.9633
E07000115,0.7762
E07000116,0.8053
E07000117,0.1172
E07000118,0.3171
E07000119,0.5199
E07000120,0.2597
E07000121,0.236
E07000122,0.132
E07000123,0.4744
E07000124,0.2503
E07000125,0.5505
E07000126,0.162
E07000127,0.0106
E07000128,0.6602
E07000129,0.0059
E07000130,0.0552
E07000131,0.1809
E07000132,0.5739
E07000133,0.4816
E07000134,0.4712
E07000135,0.7794
E07000136,0.9972
E07000137,0.2749
E07000138,0.1255
E07000139,0.3318
E07000140,0.4354
E07000141,0.4688
E07000142,0.8142
E07000143,0.6453
E07000144,0.5026
E07000145,0.5539
E07000146,0.6874
E07000147,0.9364
E07000148,0.9834
E07000149,0.0706
E07000150,0.3464
E07000151,0.3455
E07000152,0.7658
E07000153,0.7257
E07000154,0.4176
E07000155,0.7031
E07000156,0.181
E07000163,0.0039
E07000164,0.8393
E07000165,0.0023
E07000166,0.1425
E07000167,0.0562
E07000168,0.3162
E07000169,0.378
E07000170,0.9212
E07000171,0.3456
E07000172,0.1879
E07000173,0.211
E07000174,0.9945
E07000175,0.6091
E07000176,0.3706
E07000177,0.5975
E07000178,0.984
E07000179,0.8803
E07000180,0.6255
E07000181,0.3599
E07000187,0.0404
E07000188,0.6257
E07000189,0.6299
E07000192,0.1362
E07000193,0.4412
E07000194,0.5942
E07000195,0.2914
E07000196,0.147
E07000197,0.4239
E07000198,0.7186
E07000199,0.5941
E07000200,0.7704
E07000202,0.5624
E07000203,0.8848
E07000207,0.9343
E07000208,0.7553
E07000209,0.4838
E07000210,0.5062
E07000211,0.7513
E07000212,0.763
E07000213,0.9495
E07000214,0.8453
E07000215,0.4423
E07000216,0.408
E07000217,0.9324
E07000218,0.8293
E07000219,0.5396
E07000220,0.8055
E07000221,0.2066
E07000222,0.2671
E07000223,0.0954
E07000224,0.5813
E07000225,0.6595
E07000226,0.581
E07000227,0.4855
E07000228,0.5198
E07000229,0.4392
E07000234,0.3884
E07000235,0.2133
E07000236,0.5648
E07000237,0.6352
E07000238,0.6158
E07000239,0.9029
E07000240,0.9097
E07000241,0.5048
E07000242,0.7343
E07000243,0.6312
E07000244,0.4223
E07000245,0.9912
E07000246,0.3401
E08000001,0.1587
E08000002,0.3514
E08000003,0.581
E08000004,0.3611
E08000005,0.4745
E08000006,0.2495
E08000007,0.2549
E08000008,0.338
E08000009,0.3297
E08000010,0.2827
E08000011,0.4383
E08000012,0.212
E08000013,0.1733
E08000014,0.0544
E08000015,0.6973
E08000016,0.47
E08000017,0.2638
E08000018,0.2669
E08000019,0.1995
E08000021,0.1904
E08000022,0.6386
E08000023,0.014
E08000024,0.0871
E08000025,0.5857
E08000026,0.4986
E08000027,0.1773
E08000028,0.3663
E08000029,0.6486
E08000030,0.4883
E08000031,0.7283
E08000032,0.0285
E08000033,0.1261
E08000034,0.2626
E08000035,0.1515
E08000036,0.0606
E08000037,0.0749
"E09000001,E09000033",0.7661
E09000002,0.8443
E09000003,0.9628
E09000004,0.9755
E09000005,0.9169
E09000006,0.999
E09000007,0.9269
E09000008,0.9933
E09000009,0.9278
E09000010,0.9977
E09000011,0.9564
E09000012,0.878
E09000013,0.9849
E09000014,0.9678
E09000015,0.993
E09000016,0.8178
E09000017,0.9217
E09000018,0.9725
E09000019,0.9716
E09000020,0.8014
E09000021,0.8403
E09000022,0.9939
E09000023,0.8878
E09000024,0.9812
E09000025,0.9362
E09000026,0.9643
E09000027,0.6069
E09000028,0.9856
E09000029,0.7673
E09000030,0.9293
E09000031,0.8432
E09000032,0.9776
