lad19cd,ex_prob
E06000001,0.5278
E06000002,0.9988
E06000003,0
E06000004,0.1338
E06000005,0.1484
E06000006,0.7968
E06000007,0.9868
E06000008,0.9247
E06000009,0.7033
E06000010,0.0424
E06000011,0.0494
E06000012,0.0894
E06000013,0.0841
E06000014,0.6407
E06000015,0.9289
E06000016,0.9816
E06000017,0.4738
E06000018,0.3168
E06000019,0.515
E06000020,0.1191
E06000021,0.981
E06000022,0.0697
E06000023,0.5632
E06000024,0.6367
E06000025,0.5186
E06000026,0.0874
E06000027,0.2288
E06000030,0.9866
E06000031,0.8861
E06000032,0.9739
E06000033,0.2057
E06000034,0.4408
E06000035,0.0918
E06000036,0
E06000037,0.0255
E06000038,0.3847
E06000039,0.9392
E06000040,0.594
E06000041,0.4169
E06000042,0.9139
E06000043,0.3161
E06000044,0.2953
E06000045,0.5762
E06000046,0.3803
E06000047,0.0982
E06000049,0.5616
E06000050,0.3875
E06000051,0.0478
"E06000052,E06000053",0.245
E06000054,0.1667
E06000055,0.7479
E06000056,0.269
E06000057,0.0765
E06000058,0.397
E06000059,0.1395
E07000004,0.1799
E07000005,0.5033
E07000006,0.7437
E07000007,0.428
E07000008,0.7928
E07000009,0.1667
E07000010,0.4881
E07000011,0.5794
E07000012,0.1162
E07000026,0.7102
E07000027,0
E07000028,0.9879
E07000029,0.966
E07000030,0.7095
E07000031,0.0779
E07000032,0.294
E07000033,0.0598
E07000034,0.6866
E07000035,0.0979
E07000036,0.5361
E07000037,0.4204
E07000038,0.939
E07000039,0.6817
E07000040,0.0911
E07000041,0.1167
E07000042,0
E07000043,0
E07000044,0.4746
E07000045,0
E07000046,0.207
E07000047,0.2481
E07000061,0.5202
E07000062,0
E07000063,0.2877
E07000064,0.7478
E07000065,0.0326
E07000066,0.0478
E07000067,0.2551
E07000068,0.511
E07000069,0.5382
E07000070,0.3487
E07000071,0.1473
E07000072,0.9235
E07000073,0.3094
E07000074,0.3718
E07000075,0
E07000076,0.3242
E07000077,0.0862
E07000078,0.2356
E07000079,0.3961
E07000080,0
E07000081,0.9679
E07000082,0.2482
E07000083,0.8663
E07000084,0.1057
E07000085,0.3144
E07000086,0.1033
E07000087,0.2422
E07000088,0.1018
E07000089,0.457
E07000090,0.5034
E07000091,0.1377
E07000092,0.5174
E07000093,0.0553
E07000094,0.121
E07000095,0.2899
E07000096,0.9303
E07000098,0.8302
E07000099,0.443
E07000102,0.4714
E07000103,0.969
E07000105,0.7489
E07000106,0.2539
E07000107,0.3661
E07000108,0.971
E07000109,0.8415
E07000110,0.3479
E07000111,0.1123
E07000112,0.901
E07000113,0.0166
E07000114,0.2555
E07000115,0.6873
E07000116,0.7708
E07000117,0.9308
E07000118,0.7716
E07000119,0.2988
E07000120,0.8351
E07000121,0.4587
E07000122,0.9894
E07000123,0.9931
E07000124,0.2627
E07000125,0.7058
E07000126,0.6464
E07000127,0.8173
E07000128,0.5603
E07000129,0.2646
E07000130,0.2514
E07000131,0.535
E07000132,0.1952
E07000133,0.5294
E07000134,0.2315
E07000135,0.1953
E07000136,0.6377
E07000137,0.4344
E07000138,0.9792
E07000139,0.0438
E07000140,0.2068
E07000141,0.5366
E07000142,0.5505
E07000143,0.4011
E07000144,0.8829
E07000145,0.7924
E07000146,0.1064
E07000147,0.1354
E07000148,0.2806
E07000149,0.3294
E07000150,0.9885
E07000151,0
E07000152,0.8099
E07000153,0.8697
E07000154,0.9769
E07000155,0.4269
E07000156,0.9674
E07000163,0.0119
E07000164,0.1816
E07000165,0.4232
E07000166,0.8563
E07000167,0.8097
E07000168,0.1401
E07000169,0.308
E07000170,0.2886
E07000171,0.9481
E07000172,0.3562
E07000173,0.2523
E07000174,0.147
E07000175,0.8753
E07000176,0.092
E07000177,0.452
E07000178,0.9088
E07000179,0.2635
E07000180,0.8674
E07000181,0.8032
E07000187,0.4614
E07000188,0.0901
E07000189,0.0427
E07000192,0.7337
E07000193,0.5969
E07000194,0.5545
E07000195,0.6074
E07000196,0.4419
E07000197,0.5576
E07000198,0.0703
E07000199,0.8556
E07000200,0.5817
E07000202,0.3241
E07000203,0.7317
E07000207,0.2804
E07000208,0.1642
E07000209,0.3377
E07000210,0.2947
E07000211,0.681
E07000212,0.2178
E07000213,0.5607
E07000214,0.84
E07000215,0.5417
E07000216,0.0841
E07000217,0.7227
E07000218,0.0291
E07000219,0.2276
E07000220,0.612
E07000221,0.3913
E07000222,0.4293
E07000223,0.256
E07000224,0.4399
E07000225,0.0634
E07000226,0.0582
E07000227,0.4918
E07000228,0.4073
E07000229,0.1775
E07000234,0.3746
E07000235,0.193
E07000236,0.1125
E07000237,0.3994
E07000238,0.9007
E07000239,0
E07000240,0.588
E07000241,0.6182
E07000242,0.6331
E07000243,0.1591
E07000244,0.0244
E07000245,0.9025
E07000246,0.5985
E08000001,0.9275
E08000002,0.8841
E08000003,0.8886
E08000004,0.9979
E08000005,0.9809
E08000006,0.668
E08000007,0.937
E08000008,0.9949
E08000009,0.9147
E08000010,0.4265
E08000011,0.9254
E08000012,0.5492
E08000013,0.9826
E08000014,0.7826
E08000015,0.2693
E08000016,0.821
E08000017,0.5726
E08000018,0.9043
E08000019,0.9435
E08000021,0.4537
E08000022,0.4044
E08000023,0.5879
E08000024,0.6062
E08000025,0.906
E08000026,0.7407
E08000027,0.6381
E08000028,0.9283
E08000029,0.5994
E08000030,0.3689
E08000031,0.4997
E08000032,0.8699
E08000033,0.9837
E08000034,0.9376
E08000035,0.4947
E08000036,0.8653
E08000037,0.3089
"E09000001,E09000033",0.4459
E09000002,0.5369
E09000003,0.2873
E09000004,0.5821
E09000005,0.5415
E09000006,0.592
E09000007,0.569
E09000008,0.6244
E09000009,0.5755
E09000010,0.4672
E09000011,0.3114
E09000012,0.7367
E09000013,0.7358
E09000014,0.3191
E09000015,0.5108
E09000016,0.5228
E09000017,0.8269
E09000018,0.6454
E09000019,0.5497
E09000020,0.6184
E09000021,0.8945
E09000022,0.3398
E09000023,0.6517
E09000024,0.257
E09000025,0.844
E09000026,0.8802
E09000027,0.6216
E09000028,0.5196
E09000029,0.3475
E09000030,0.1285
E09000031,0.7514
E09000032,0.6953
