lad19cd,ex_prob
E06000001,0.1138
E06000002,0.3264
E06000003,0.1842
E06000004,0.0694
E06000005,0.43120000000000003
E06000006,0.2116
E06000007,0.5964
E06000008,0.0812
E06000009,0.1644
E06000010,0.2554
E06000011,0.0757
E06000012,0.0054
E06000013,5e-4
E06000014,0.1647
E06000015,0.1925
E06000016,0.0773
E06000017,0.0248
E06000018,0.2919
E06000019,0.2148
E06000020,0.3319
E06000021,0.0574
E06000022,0.1871
E06000023,0.2395
E06000024,0.0094
E06000025,0.0809
E06000026,0.0525
E06000027,0.0631
E06000030,0.0021
E06000031,0.6752
E06000032,0.2746
E06000033,0.3629
E06000034,0.1183
E06000035,0.0161
E06000036,0.5143
E06000037,0.003
E06000038,0.5
E06000039,0.2696
E06000040,0.1465
E06000041,0.0723
E06000042,0.1179
E06000043,0.0046
E06000044,0.1594
E06000045,0.3934
E06000046,0.0847
E06000047,0.1233
E06000049,0.4647
E06000050,0.3497
E06000051,0.9265
"E06000052,E06000053",0.0314
E06000054,0.0755
E06000055,0.5744
E06000056,0.0229
E06000057,0.2077
E06000058,0.5007
E06000059,0.1754
E07000004,0.2851
E07000005,0.163
E07000006,0.3395
E07000007,0.0881
E07000008,0.2029
E07000009,0.0259
E07000010,0.3344
E07000011,0.0745
E07000012,0.3548
E07000026,0.3717
E07000027,0.2878
E07000028,0.8469
E07000029,0.6026
E07000030,0.013
E07000031,0.0435
E07000032,0.0915
E07000033,0.4844
E07000034,0.2972
E07000035,0.0286
E07000036,0.0834
E07000037,0.0639
E07000038,0.4556
E07000039,0.0503
E07000040,0.0033
E07000041,0.2541
E07000042,0.0979
E07000043,0.0145
E07000044,0.0101
E07000045,0.012
E07000046,0
E07000047,0.2319
E07000061,0.0551
E07000062,0.0045
E07000063,0.0651
E07000064,0.0625
E07000065,0.0052
E07000066,0.0574
E07000067,0.4176
E07000068,0.0038
E07000069,0.3385
E07000070,0.0615
E07000071,0.4258
E07000072,0.0478
E07000073,0.4538
E07000074,0.0168
E07000075,0.4694
E07000076,0.5883
E07000077,0.1295
E07000078,0.0146
E07000079,0.0118
E07000080,0.0299
E07000081,0.0349
E07000082,0.0376
E07000083,0.004
E07000084,0.0694
E07000085,0.0117
E07000086,0.1687
E07000087,0.0488
E07000088,0.0107
E07000089,0.0167
E07000090,0.0934
E07000091,0.2807
E07000092,0.6388
E07000093,0.2342
E07000094,0.459
E07000095,0.0788
E07000096,0.198
E07000098,0.015
E07000099,0.3359
E07000102,0.2314
E07000103,0.2169
E07000105,0.0382
E07000106,0.0256
E07000107,0.2981
E07000108,0.0505
E07000109,0.5477
E07000110,0.0579
E07000111,0.0741
E07000112,0.0217
E07000113,0.0095
E07000114,0.1316
E07000115,0.0277
E07000116,0.0828
E07000117,0.0831
E07000118,0.0309
E07000119,0.2031
E07000120,0.1358
E07000121,0.7134
E07000122,0.0808
E07000123,0.4354
E07000124,0.0123
E07000125,0.0671
E07000126,0.0126
E07000127,0.0129
E07000128,0.0195
E07000129,0.018
E07000130,0.0884
E07000131,0.0113
E07000132,0
E07000133,0.3559
E07000134,0.0019
E07000135,0.0162
E07000136,0.028
E07000137,2e-4
E07000138,0.017
E07000139,0.1646
E07000140,0.1936
E07000141,0.0015
E07000142,0.0175
E07000143,0.6197
E07000144,0.3133
E07000145,0.5955
E07000146,0.6071
E07000147,0.1133
E07000148,0.0742
E07000149,0.0253
E07000150,0.001
E07000151,0.0013
E07000152,0.0281
E07000153,0.1663
E07000154,0.1019
E07000155,0.0251
E07000156,0.1076
E07000163,0.5248
E07000164,0.0238
E07000165,0.0926
E07000166,1e-4
E07000167,0.0497
E07000168,0.0144
E07000169,0.1863
E07000170,0.4403
E07000171,0.9999
E07000172,0.149
E07000173,0.3405
E07000174,0.4049
E07000175,0.3486
E07000176,0.8046
E07000177,0.2176
E07000178,0.0409
E07000179,0.0013
E07000180,0.1099
E07000181,0.0073
E07000187,0.4003
E07000188,0.1973
E07000189,0.0626
E07000192,0.1124
E07000193,0.0466
E07000194,0.1384
E07000195,0.2361
E07000196,0.0343
E07000197,0.2867
E07000198,0.075
E07000199,0.3321
E07000200,0.01
E07000202,0.0035
E07000203,0.0055
E07000207,0.0939
E07000208,0.2207
E07000209,0.1384
E07000210,0.3786
E07000211,0.1476
E07000212,0.0467
E07000213,0.4773
E07000214,0.004
E07000215,0.1048
E07000216,0.0812
E07000217,0.3528
E07000218,0.0101
E07000219,0.0401
E07000220,0.1134
E07000221,0.0087
E07000222,0.5919
E07000223,0.1549
E07000224,0.3092
E07000225,0.4711
E07000226,0.0311
E07000227,0.0027
E07000228,0.0773
E07000229,0.0745
E07000234,0.084
E07000235,0.0286
E07000236,0.4619
E07000237,0.5663
E07000238,0.0453
E07000239,0.2823
E07000240,0.0111
E07000241,0.0118
E07000242,0.0206
E07000243,0.0734
E07000244,0.2707
E07000245,0.1491
E07000246,0.2548
E08000001,0.2415
E08000002,0.0113
E08000003,0.0197
E08000004,0.0313
E08000005,0.02
E08000006,0.1077
E08000007,0.0286
E08000008,0.0563
E08000009,0.1293
E08000010,0.0529
E08000011,0.3449
E08000012,0.3363
E08000013,0.4859
E08000014,0.1963
E08000015,0.1987
E08000016,0.3718
E08000017,0.0259
E08000018,0.1984
E08000019,0.1414
E08000021,0.0711
E08000022,0.1166
E08000023,0.5696
E08000024,0.3529
E08000025,0.2038
E08000026,0.2304
E08000027,0.2187
E08000028,0.4837
E08000029,0.1438
E08000030,0.2089
E08000031,0.2827
E08000032,0.1301
E08000033,0.0404
E08000034,0.0508
E08000035,0.0495
E08000036,0.1881
E08000037,0.0461
"E09000001,E09000033",0.0412
E09000002,0.2085
E09000003,0.0283
E09000004,0.0157
E09000005,0.0973
E09000006,0.1177
E09000007,0.2218
E09000008,0.2159
E09000009,0.1263
E09000010,0.0708
E09000011,0.2541
E09000012,0.0343
E09000013,0.4013
E09000014,0.1314
E09000015,0.2617
E09000016,0.1668
E09000017,0.1684
E09000018,0.4577
E09000019,0.0843
E09000020,0.0574
E09000021,0.1628
E09000022,0.2534
E09000023,0.2748
E09000024,0.0381
E09000025,0.1387
E09000026,0.2406
E09000027,0.0674
E09000028,0.2622
E09000029,0.3001
E09000030,0.0187
E09000031,0.1611
E09000032,0.0677
