lad19cd,ex_prob
E06000001,0.8658
E06000002,0.8254
E06000003,0.971
E06000004,0.5104
E06000005,0.9669
E06000006,0.3802
E06000007,0.4325
E06000008,0.6857
E06000009,0.9549
E06000010,0.765
E06000011,0.4893
E06000012,0.1692
E06000013,0.6874
E06000014,0.4754
E06000015,0.4699
E06000016,0.5199
E06000017,0.6235
E06000018,0.2908
E06000019,0.4558
E06000020,0.5097
E06000021,0.1215
E06000022,0.2044
E06000023,0.1357
E06000024,0.3813
E06000025,0.7439
E06000026,0.1048
E06000027,0.2
E06000030,0.3268
E06000031,0.9152
E06000032,0.865
E06000033,0.983
E06000034,0.9327
E06000035,0.4078
E06000036,0.2939
E06000037,0.9091
E06000038,0.563
E06000039,0.8407
E06000040,0.045
E06000041,0.0885
E06000042,0.5361
E06000043,0.0971
E06000044,0.7527
E06000045,0.0575
E06000046,0.0154
E06000047,0.5747
E06000049,0.5438
E06000050,0.5752
E06000051,0.6864
"E06000052,E06000053",0.0033
E06000054,0.0548
E06000055,0.8549
E06000056,0.7436
E06000057,0.2175
E06000058,0.2851
E06000059,0.3716
E07000004,0.2373
E07000005,0.9197
E07000006,0.4446
E07000007,0.7063
E07000008,0.2942
E07000009,0.3173
E07000010,0.7553
E07000011,0.2584
E07000012,0.1431
E07000026,0.1008
E07000027,0.695
E07000028,0.1876
E07000029,0.0278
E07000030,0.7946
E07000031,0.5586
E07000032,0.471
E07000033,0.8793
E07000034,0.2411
E07000035,0.2141
E07000036,0.8269
E07000037,0.9903
E07000038,0.0517
E07000039,0.838
E07000040,0.2191
E07000041,0.6937
E07000042,0.7579
E07000043,0.8919
E07000044,0.0185
E07000045,0.1232
E07000046,0.5069
E07000047,0.477
E07000061,0.4776
E07000062,0.7171
E07000063,0.8911
E07000064,0.9913
E07000065,0.6799
E07000066,0.7752
E07000067,0.8369
E07000068,0.326
E07000069,0.7761
E07000070,0.9559
E07000071,0.1338
E07000072,0.7251
E07000073,0.8598
E07000074,0.4838
E07000075,0.9113
E07000076,0.3153
E07000077,0.5879
E07000078,0.6292
E07000079,0.3726
E07000080,0.761
E07000081,0.9378
E07000082,0.8897
E07000083,0.9064
E07000084,0.0213
E07000085,0.5028
E07000086,0.0478
E07000087,0.7186
E07000088,0.967
E07000089,0.284
E07000090,0.5343
E07000091,0.4288
E07000092,0.8494
E07000093,0.0865
E07000094,0.0394
E07000095,0.5546
E07000096,0.4213
E07000098,0.9268
E07000099,0.0441
E07000102,0.3571
E07000103,0.9124
E07000105,0.997
E07000106,0.4841
E07000107,0.5015
E07000108,0.9478
E07000109,0.2827
E07000110,0.7784
E07000111,0.7277
E07000112,0.9766
E07000113,0.8757
E07000114,0.2162
E07000115,0.8375
E07000116,0.8797
E07000117,0.2746
E07000118,0.9821
E07000119,0.9423
E07000120,0.1194
E07000121,0.2484
E07000122,0.8166
E07000123,0.9354
E07000124,0.9496
E07000125,0.268
E07000126,0.6462
E07000127,0.268
E07000128,0.7472
E07000129,0.4375
E07000130,0.3857
E07000131,0.9253
E07000132,0.3195
E07000133,0.9976
E07000134,0.8438
E07000135,0.6472
E07000136,0.0339
E07000137,0.5831
E07000138,0.9853
E07000139,0.3463
E07000140,0.1545
E07000141,0.7955
E07000142,0.5352
E07000143,0.3215
E07000144,0.515
E07000145,0.627
E07000146,0.9401
E07000147,0.5056
E07000148,0.0011
E07000149,0.164
E07000150,0.4797
E07000151,0.1331
E07000152,0.0654
E07000153,0.5731
E07000154,0.0608
E07000155,0.4563
E07000156,0.3442
E07000163,0.2103
E07000164,0.0654
E07000165,0.0704
E07000166,0.0103
E07000167,0.4598
E07000168,0.2974
E07000169,0.0579
E07000170,0.2226
E07000171,0.021
E07000172,0.2948
E07000173,0.7263
E07000174,0.9871
E07000175,0.5816
E07000176,0.3168
E07000177,0.1534
E07000178,0.5599
E07000179,0.1648
E07000180,0.0406
E07000181,0.2419
E07000187,0.865
E07000188,0.6332
E07000189,0.561
E07000192,0.9381
E07000193,0.9494
E07000194,0.6224
E07000195,0.6972
E07000196,0.7194
E07000197,0.998
E07000198,0.8787
E07000199,0.1704
E07000200,0.179
E07000202,0.9298
E07000203,0.5389
E07000207,0.6067
E07000208,0.3916
E07000209,0.2284
E07000210,0.3471
E07000211,0.4681
E07000212,0.0013
E07000213,0.4998
E07000214,0.8363
E07000215,0.3563
E07000216,0.9151
E07000217,0.3439
E07000218,0.0867
E07000219,0.2247
E07000220,0.143
E07000221,0.8185
E07000222,0.5537
E07000223,0.217
E07000224,0.4979
E07000225,0.051
E07000226,0.4791
E07000227,0.0915
E07000228,0.6739
E07000229,0.3107
E07000234,0.9999
E07000235,0.3287
E07000236,0.8487
E07000237,0.4199
E07000238,0.6115
E07000239,0.1148
E07000240,0.5147
E07000241,0.154
E07000242,0.2164
E07000243,0.0358
E07000244,0.6966
E07000245,0.5721
E07000246,0.5337
E08000001,0.5444
E08000002,0.5333
E08000003,0.5006
E08000004,0.6305
E08000005,0.4272
E08000006,0.2172
E08000007,0.315
E08000008,0.1746
E08000009,0.3228
E08000010,0.6188
E08000011,0.2364
E08000012,0.2644
E08000013,0.2055
E08000014,0.294
E08000015,0.2161
E08000016,0.6069
E08000017,0.3001
E08000018,0.5384
E08000019,0.5928
E08000021,0.1643
E08000022,0.3735
E08000023,0.9999
E08000024,0.7199
E08000025,0.2779
E08000026,0.7277
E08000027,0.7112
E08000028,0.2036
E08000029,0.3244
E08000030,0.124
E08000031,0.2108
E08000032,0.047
E08000033,0.207
E08000034,0.2926
E08000035,0.2677
E08000036,0.5786
E08000037,0.1444
"E09000001,E09000033",0.3137
E09000002,0.7539
E09000003,0.6253
E09000004,0.7581
E09000005,0.4066
E09000006,0.2538
E09000007,0.3773
E09000008,0.4608
E09000009,0.5677
E09000010,0.9187
E09000011,0.5144
E09000012,0.2835
E09000013,0.7292
E09000014,0.6613
E09000015,0.3484
E09000016,0.8739
E09000017,0.8959
E09000018,0.765
E09000019,0.7262
E09000020,0.6235
E09000021,0.9238
E09000022,0.8643
E09000023,0.8036
E09000024,0.6929
E09000025,0.8817
E09000026,0.8283
E09000027,0.7024
E09000028,0.8247
E09000029,0.5788
E09000030,0.4329
E09000031,0.8394
E09000032,0.95
