lad19cd,ex_prob
E06000001,0.1978
E06000002,0.7596
E06000003,0.7811
E06000004,0.1496
E06000005,0.2707
E06000006,0.0756
E06000007,0.0584
E06000008,0.493
E06000009,0.4447
E06000010,0.5596
E06000011,0.1913
E06000012,0.4487
E06000013,0.0152
E06000014,0.0456
E06000015,0.4294
E06000016,0.0524
E06000017,0.2005
E06000018,0.4552
E06000019,0.0089
E06000020,0.0206
E06000021,0.2737
E06000022,0.081
E06000023,0.0687
E06000024,0.0224
E06000025,0.007
E06000026,0.0305
E06000027,0.7084
E06000030,0.0637
E06000031,0.5702
E06000032,0.204
E06000033,0.0379
E06000034,0.5244
E06000035,0.2567
E06000036,0.0546
E06000037,0.0369
E06000038,0.0877
E06000039,0.1796
E06000040,0.3942
E06000041,0.0427
E06000042,0.0054
E06000043,0.2806
E06000044,0.4524
E06000045,0.267
E06000046,0.0261
E06000047,0.0082
E06000049,0.0687
E06000050,2e-4
E06000051,0.0118
"E06000052,E06000053",0.0061
E06000054,0.0012
E06000055,0.1502
E06000056,0.0043
E06000057,0.088
E06000058,0.1249
E06000059,0.004
E07000004,0.2034
E07000005,0.0165
E07000006,0.0274
E07000007,0.0465
E07000008,0.9644
E07000009,0.1061
E07000010,0.0737
E07000011,0.0032
E07000012,0.3847
E07000026,0.0606
E07000027,0.6695
E07000028,0.1448
E07000029,0.3408
E07000030,0.0124
E07000031,0.1233
E07000032,0.1397
E07000033,0.2874
E07000034,0.0632
E07000035,0.3716
E07000036,0.2419
E07000037,5e-4
E07000038,0.1874
E07000039,0.0449
E07000040,0.1414
E07000041,0.491
E07000042,0.3512
E07000043,0.8049
E07000044,0.0243
E07000045,0.1368
E07000046,0.1077
E07000047,0.0027
E07000061,0.1799
E07000062,0.1387
E07000063,0.1103
E07000064,0.0549
E07000065,0.0472
E07000066,0.0234
E07000067,0.1281
E07000068,0.2096
E07000069,0.2865
E07000070,0.197
E07000071,0.2055
E07000072,0.5686
E07000073,0.1725
E07000074,0.26
E07000075,0.3727
E07000076,0.0271
E07000077,0.2757
E07000078,0.1829
E07000079,0.387
E07000080,0.2091
E07000081,0.366
E07000082,0.2872
E07000083,0.0686
E07000084,0.2508
E07000085,0.328
E07000086,0.1908
E07000087,0.2525
E07000088,0.3766
E07000089,0.0771
E07000090,0.1241
E07000091,0.0996
E07000092,0.3078
E07000093,0.117
E07000094,0.0426
E07000095,0.2803
E07000096,0.2412
E07000098,0.664
E07000099,0.4003
E07000102,0.0301
E07000103,0.7539
E07000105,0.0161
E07000106,0.0116
E07000107,0.2096
E07000108,0.0015
E07000109,0.5227
E07000110,0.2482
E07000111,0.2897
E07000112,0.0398
E07000113,0.2104
E07000114,0.1031
E07000115,0.1399
E07000116,0.7209
E07000117,0.201
E07000118,0.0882
E07000119,0.3215
E07000120,0.0012
E07000121,0.5544
E07000122,0.723
E07000123,0.5851
E07000124,0.9558
E07000125,0.3237
E07000126,0.1548
E07000127,0.1908
E07000128,0.2025
E07000129,0.2277
E07000130,0.0445
E07000131,0.067
E07000132,0.0464
E07000133,0.5082
E07000134,0.0362
E07000135,0.0428
E07000136,0.2905
E07000137,0.0252
E07000138,0.0696
E07000139,0.4382
E07000140,0.0603
E07000141,0.1736
E07000142,0.0036
E07000143,0.2594
E07000144,0.0613
E07000145,0.3438
E07000146,0.0939
E07000147,0
E07000148,0.998
E07000149,0.0348
E07000150,0.0792
E07000151,0.1213
E07000152,0.2454
E07000153,0.8274
E07000154,0.3661
E07000155,0.1095
E07000156,0.6289
E07000163,0.2635
E07000164,0.2294
E07000165,0.0219
E07000166,0.6283
E07000167,0.2834
E07000168,0.8897
E07000169,0.0826
E07000170,0.6125
E07000171,0.0022
E07000172,0.0284
E07000173,0.0103
E07000174,0.6972
E07000175,0.0917
E07000176,0.0467
E07000177,0.5702
E07000178,0.1405
E07000179,0.1191
E07000180,0.0056
E07000181,0.0692
E07000187,0.0985
E07000188,0.0496
E07000189,0.433
E07000192,0.006
E07000193,0.5897
E07000194,0.8691
E07000195,0.0708
E07000196,0.1606
E07000197,0.0417
E07000198,0.2757
E07000199,0.1776
E07000200,0.0012
E07000202,0.6076
E07000203,0.1987
E07000207,0.465
E07000208,0.2727
E07000209,0.027
E07000210,0.151
E07000211,0.1311
E07000212,0.1737
E07000213,0.1954
E07000214,0.6197
E07000215,0.4327
E07000216,0.3067
E07000217,0.4218
E07000218,0.0328
E07000219,0.2257
E07000220,0.4031
E07000221,0.1906
E07000222,0.034
E07000223,0.3147
E07000224,0.1606
E07000225,0.0667
E07000226,0.2624
E07000227,0.0281
E07000228,0.3048
E07000229,0.6167
E07000234,0.0594
E07000235,0.0174
E07000236,0.1608
E07000237,0.167
E07000238,0.0333
E07000239,0.1062
E07000240,0.2754
E07000241,0.2121
E07000242,0.5727
E07000243,0.0218
E07000244,0.0949
E07000245,0.3992
E07000246,0.1677
E08000001,0.1143
E08000002,0.1734
E08000003,0.0513
E08000004,0.1104
E08000005,0.3146
E08000006,0.2326
E08000007,0.1188
E08000008,0.0919
E08000009,0.0078
E08000010,0.2494
E08000011,0.2198
E08000012,0.0907
E08000013,0.0579
E08000014,0.0798
E08000015,0.1286
E08000016,0.3669
E08000017,0.2474
E08000018,0.2469
E08000019,0.6102
E08000021,0.0838
E08000022,0.124
E08000023,0.446
E08000024,0.0988
E08000025,0.0798
E08000026,0.0411
E08000027,0.0599
E08000028,0.1133
E08000029,0.0277
E08000030,0.027
E08000031,0.1797
E08000032,0.043
E08000033,0.2526
E08000034,0.1121
E08000035,0.0121
E08000036,0.0802
E08000037,0.0416
"E09000001,E09000033",0
E09000002,0.2061
E09000003,0.2231
E09000004,0.167
E09000005,0.3193
E09000006,0.3127
E09000007,0.0242
E09000008,0.7941
E09000009,0.1808
E09000010,0.2145
E09000011,0.1475
E09000012,0.4425
E09000013,0.4865
E09000014,0.335
E09000015,0.366
E09000016,0.3615
E09000017,0.3363
E09000018,0.0664
E09000019,0.0868
E09000020,0.7082
E09000021,0.2197
E09000022,0.1373
E09000023,0.3239
E09000024,0.2967
E09000025,0.1831
E09000026,0.6787
E09000027,0.3941
E09000028,0.1174
E09000029,0.0516
E09000030,0.0367
E09000031,0.0619
E09000032,0.4126
