"name","given","fullpath","mtime","md5"
"cases","/data/covid19/PHE/PHE_2021-04-14/Anonymised Combined Line List 20210414.csv","/data/covid19/PHE/PHE_2021-04-14/Anonymised Combined Line List 20210414.csv",2021-04-14 11:31:19,"2d0361032637e39d60d8a5f6a5503940"
"flows","/app/Data/Unrestricted/processed/mergedflows.rds","/app/Data/Unrestricted/processed/mergedflows.rds",2020-06-15 14:28:56,"2f34b018ac0995f8e9461f062a068004"
"traffic","/data/covid19/Dft/2021-01-29/210129_OFF_SEN_COVID19_road_traffic_national_table.xlsx","/data/covid19/Dft/2021-01-29/210129_OFF_SEN_COVID19_road_traffic_national_table.xlsx",2021-02-01 21:42:24,"7243c505164f6f2f7c406aececcde41e"
"areas","/app/Data/Unrestricted/original/geodata/UK2019mod_pop.gpkg","/app/Data/Unrestricted/original/geodata/UK2019mod_pop.gpkg",2020-06-22 08:51:34,"cf99fa0284c96852e73f588f6bb89110"
